# GA, 10 min, 500 population, pm = 0.02
file,goodness,requestsGranted,iterations,A,B,C,DE,SUM

Pravi1,		5897,	1355,	37803,	4523,1115,227,-145581,	-139716
Pravi1,		5906,	1357,	41035,	4525,1121,228,-145581,	-139707
Pravi1,		5909,	1358,	39031,	4526,1122,229,-145581,	-139704

Pravi2,		1881,	653,	61596,	1148,577,151,-143995,	-142119
Pravi2,		1878,	652,	61573,	1147,578,148,-143995,	-142122
Pravi2,		1881,	653,	62720,	1148,577,151,-143995,	-142119

Sample3,	4802,	1958,	42380,	1958,1739,169,-9730,	-5864
Sample3,	4795,	1960,	37515,	1960,1730,168,-9729,	-5871
Sample3,	4806,	1962,	37495,	1962,1739,169,-9730,	-5860

Sample4,	1996,	984,	64577,	984,887,105,-5611,		-3635
Sample4,	1995,	983,	62189,	983,886,105,-5610,		-3636
Sample4,	1998,	983,	64676,	983,888,108,-5612,		-3633

Sample5,	1875,	578,	62335,	578,597,117,-1931,		-639
Sample5,	1875,	578,	60067,	578,594,120,-1931,		-639
Sample5,	1874,	578,	59857,	578,594,119,-1931,		-640

Sample6,	2602,	831,	68901,	831,836,87,-1924,		-170
Sample6,	2603,	831,	69688,	831,838,86,-1924,		-169
Sample6,	2602,	831,	69694,	831,837,86,-1924,		-170

Sample7,	3416,	1611,	92665,	1611,1466,263,-8637,	-5297
Sample7,	3425,	1621,	94987,	1621,1461,267,-8637,	-5288
Sample7,	3435,	1629,	82252,	1629,1464,268,-8639,	-5278
