# GA advanced, 10 min, 400 population, pm = 0.02
file,goodness,requestsGranted,iterations,A,B,C,DE,SUM

Pravi1,		5989,	1391,	61003,	4559,1162,236,145581,	-139624
Pravi1,		5988,	1389,	62180,	4557,1162,237,145581,	-139625
Pravi1,		5984,	1392,	64439,	4560,1158,234,145581,	-139629

Pravi2,		1931,	674,	113746,	1169,602,155,143995,	-142069
Pravi2,		1933,	676,	112070,	1171,604,153,143995,	-142067
Pravi2,		1933,	676,	110219,	1171,604,153,143995,	-142067

Sample3,	4824,	1965,	55324,	1965,1747,170,9724,		-5842
Sample3,	4824,	1968,	55205,	1968,1741,174,9725,		-5842
Sample3,	4823,	1968,	55910,	1968,1746,170,9727,		-5843

Sample4,	2012,	990,	119859,	990,895,106,5610,		-3619
Sample4,	2014,	990,	119228,	990,896,107,5610,		-3617
Sample4,	2011,	992,	119836,	992,891,110,5613,		-3620

Sample5,	1875,	578,	109190,	578,597,117,1931,		-639
Sample5,	1875,	578,	113259,	578,596,118,1931,		-639
Sample5,	1874,	578,	110882,	578,595,118,1931,		-640

Sample6,	2603,	831,	120683,	831,838,86,1924,		-169
Sample6,	2603,	831,	119761,	831,838,86,1924,		-169
Sample6,	2602,	831,	119119,	831,837,86,1924,		-170

Sample7,	3507,	1653,	38949,	1653,1500,278,8637,		-5206
Sample7,	3515,	1667,	49911,	1667,1495,276,8636,		-5198
Sample7,	3508,	1655,	54061,	1655,1507,273,8640,		-5205
