student_id,activity_id,req_group_id
14046,2274099,115134
15608,2277187,116249
16052,2272601,114851
15461,2272588,114842
14233,2277103,116172
14196,2274110,115147
14485,2275908,115835
14281,2277619,116307
16500,2272670,114883
16319,2272601,114852
15637,2271648,114472
16278,2268315,113609
13060,2274088,115126
15196,2271648,114475
11043,2272149,114650
13017,2274728,115345
15138,2275887,115811
15106,2277117,116178
14341,2276672,116004
15221,2277117,116175
15276,2275929,115852
16611,2270409,114230
14269,2275908,115831
15374,2277145,116214
14239,2274088,115128
15193,2275929,115854
16291,2270409,114218
15183,2270883,114369
16023,2268640,113711
16130,2268399,113694
11752,2269102,113944
15461,2268399,113689
16611,2270330,114166
15198,2277117,116176
12954,2275929,115852
14136,2274088,115120
15027,2269153,113975
16436,2268371,113685
10671,2269975,114103
16360,2272588,114846
14038,2271746,114485
13917,2275110,115530
15106,2277131,116192
16127,2270883,114367
14171,2274088,115126
14262,2275092,115512
16557,2268640,113727
16183,2270330,114167
16418,2268790,113856
14429,2269153,113976
16225,2270804,114338
14292,2276150,115897
16160,2270409,114231
14196,2274110,115144
16474,2270330,114171
16168,2272670,114882
16183,2268640,113742
16183,2270330,114155
16519,2268790,113860
14351,2277131,116189
16418,2268740,113849
15291,2277117,116187
16418,2272670,114884
16225,2272575,114836
16127,2273329,114942
11713,2276394,115953
16168,2268399,113690
15313,2277619,116302
12965,2276920,116091
16340,2273329,114943
15211,2269975,114103
16183,2270330,114201
14244,2271772,114517
15104,2275929,115854
16291,2268790,113854
15420,2271648,114475
16389,2270883,114365
16383,2272588,114845
16611,2272670,114883
15050,2271648,114473
13950,2275110,115534
16023,2268640,113744
14171,2274088,115127
14270,2275074,115496
14219,2274260,115206
14351,2277103,116164
16300,2270804,114325
16611,2270804,114342
16582,2273329,114940
15530,2277145,116204
14346,2277131,116200
16018,2268740,113829
14029,2276627,115984
15258,2272588,114843
14521,2276672,116005
16557,2268690,113773
16183,2270330,114203
12621,2275481,115649
11912,2272402,114753
15349,2277619,116304
14364,2276773,116018
16418,2268740,113843
16474,2268371,113671
14442,2276672,116004
11618,2276394,115953
11774,2275493,115660
15575,2277089,116148
16474,2270883,114367
11689,2275866,115798
16219,2272562,114812
16531,2273329,114944
16168,2272670,114883
15280,2268399,113691
16531,2268315,113625
14362,2274088,115122
16582,2272601,114853
14186,2276672,116004
12006,2274088,115124
12841,2275119,115541
14345,2270409,114215
16611,2268343,113644
15092,2275908,115849
16183,2270330,114140
14460,2276167,115914
16611,2268690,113776
16023,2272588,114842
16611,2268399,113690
15124,2277103,116167
16611,2268690,113777
11559,2276672,116004
15272,2277089,116147
16582,2272588,114847
11067,2269062,113901
16052,2272670,114886
11618,2272393,114743
15480,2268399,113691
15243,2277187,116245
15491,2270330,114180
15525,2277187,116249
14019,2274756,115373
11713,2275203,115573
15217,2273329,114940
13956,2274110,115150
16008,2272549,114801
13129,2275929,115853
16499,2268315,113619
12823,2275499,115665
15444,2275866,115795
15283,2277131,116193
15322,2277089,116159
13087,2268640,113740
14290,2275110,115533
16231,2270330,114188
14260,2273876,115062
11760,2272145,114646
12731,2275929,115851
15272,2277089,116154
14262,2275119,115543
14151,2274088,115126
14132,2275908,115843
16291,2270804,114335
16113,2268690,113798
16160,2270409,114246
13911,2274088,115127
15143,2277173,116243
13077,2276167,115913
15027,2269153,113968
16611,2268315,113631
13969,2275929,115853
15374,2277075,116137
13963,2274077,115116
15022,2277187,116246
11946,2274442,115265
13969,2275866,115795
15660,2272670,114882
15065,2271648,114475
16183,2270330,114138
15469,2275908,115834
14174,2271759,114508
16611,2270330,114184
15104,2277159,116219
12794,2276150,115897
16519,2270409,114282
15128,2275908,115832
16531,2270883,114366
16611,2270804,114332
15359,2268315,113605
16018,2268740,113837
15242,2269166,113979
16611,2272670,114882
16023,2268740,113841
16035,2268343,113641
12815,2269094,113937
16545,2268399,113694
14351,2277117,116184
14115,2276672,116003
16231,2272601,114851
15106,2277089,116148
14290,2274756,115373
14493,2277619,116306
14316,2271648,114474
15128,2275908,115834
16160,2270409,114243
14455,2270883,114369
16183,2268315,113613
11067,2274458,115280
14049,2276167,115913
12858,2272129,114630
16364,2272601,114852
14307,2276167,115913
16144,2268315,113615
15349,2269166,113980
15603,2277619,116307
16293,2268740,113836
15448,2268790,113857
11043,2272132,114633
14122,2271785,114532
14063,2276167,115913
16027,2270330,114180
16052,2270883,114370
14168,2276920,116090
14021,2271759,114503
16023,2268640,113728
16531,2268343,113634
15286,2271648,114473
12735,2274442,115260
16627,2273329,114941
15598,2270330,114188
16470,2270330,114144
10702,2274110,115150
16183,2268740,113838
15148,2277159,116225
16169,2272575,114827
15283,2277173,116231
15104,2277117,116175
15117,2271648,114473
15374,2277187,116249
12952,2276133,115891
16436,2272601,114852
16278,2268399,113694
12681,2274442,115264
14134,2271759,114507
15404,2271648,114474
14351,2275887,115818
15026,2277159,116229
13042,2275929,115853
14279,2274088,115125
16313,2273329,114944
15370,2268399,113695
15329,2271648,114474
15106,2277159,116218
16628,2273329,114940
16611,2268343,113655
16160,2270804,114353
12871,2276881,116055
16278,2268790,113856
12896,2275929,115853
15196,2275908,115837
15469,2271648,114474
15272,2275866,115801
16219,2272588,114847
15491,2268371,113680
16293,2273329,114941
16531,2272575,114830
14151,2274099,115134
15280,2275929,115854
14549,2274248,115192
14145,2274088,115128
14338,2271785,114532
15221,2275929,115854
13919,2275929,115851
12980,2274088,115126
16289,2268690,113774
16289,2270804,114337
12923,2274442,115266
12926,2269975,114103
14046,2276672,116004
16231,2270883,114365
15027,2277089,116155
14286,2273876,115059
13028,2276150,115899
13963,2277619,116303
15657,2272670,114888
16160,2268740,113839
16117,2268790,113857
15438,2277619,116304
15603,2269166,113982
12932,2275929,115854
16418,2268690,113799
16035,2270330,114163
15099,2277131,116201
16613,2273329,114942
16018,2268740,113842
14242,2270330,114163
12870,2274978,115446
15266,2277117,116175
16018,2268690,113798
14512,2271746,114493
15448,2268640,113734
14337,2271759,114500
16035,2268315,113616
16160,2270804,114352
14219,2275101,115525
15428,2272601,114851
15048,2277173,116233
15019,2277103,116167
16339,2268790,113855
15367,2275866,115806
14025,2274088,115123
15182,2275887,115815
15421,2277619,116306
15123,2271648,114473
16418,2268399,113691
16035,2268790,113860
15361,2275908,115837
15461,2277089,116159
14292,2276150,115909
15106,2277145,116203
16293,2272601,114852
15469,2270082,114109
14180,2274748,115367
11548,2276167,115914
15217,2276672,116004
16183,2268690,113789
12741,2274442,115262
14134,2271746,114495
16219,2268740,113839
16436,2268690,113778
15138,2275887,115821
15272,2275866,115807
11586,2277619,116306
14371,2271759,114507
14038,2276672,116005
11575,2274203,115172
16092,2270883,114371
16557,2268690,113781
15106,2277619,116305
14008,2274954,115421
15151,2277619,116306
12746,2269086,113928
15128,2270082,114109
16459,2270409,114230
15370,2268740,113852
16611,2270409,114227
16183,2268315,113624
16365,2272670,114888
12966,2274088,115122
15111,2277619,116306
16418,2268640,113743
15637,2272588,114845
16183,2268740,113836
11751,2275887,115818
15035,2277619,116302
15272,2275887,115826
15593,2275929,115854
16195,2268740,113827
13960,2271772,114514
15637,2268740,113842
14097,2271772,114516
15176,2277619,116306
15164,2277145,116212
14314,2276167,115913
16183,2268315,113616
16468,2272588,114846
16293,2270409,114242
16684,2277089,116154
16613,2270883,114366
14372,2276116,115875
15367,2268740,113839
14244,2271759,114505
16394,2270409,114284
15027,2269153,113977
16183,2268640,113737
16231,2270330,114154
14437,2271759,114503
16160,2270330,114152
15048,2275908,115833
16018,2268690,113774
16183,2268640,113741
12729,2273876,115059
14404,2274255,115199
15272,2277145,116207
16168,2268343,113655
16282,2272549,114809
11713,2274374,115243
15461,2277173,116243
13948,2274099,115131
13996,2276672,116003
16008,2268790,113860
15217,2270330,114172
11043,2272159,114661
15448,2272670,114884
15603,2276133,115882
13145,2275211,115579
15521,2268790,113857
13930,2271772,114512
12794,2276150,115907
15602,2277103,116163
15253,2271785,114526
16611,2270409,114244
12830,2271759,114507
15287,2275929,115854
14228,2271746,114484
14388,2275119,115539
11548,2276116,115874
12850,2271759,114499
16490,2273329,114940
16183,2270330,114136
15463,2275887,115828
14437,2271759,114505
14404,2274736,115354
16124,2272588,114844
15027,2277075,116135
15073,2277187,116248
15091,2277103,116167
14288,2269166,113980
13919,2274213,115183
16611,2268690,113780
14446,2276167,115913
14404,2274272,115217
16394,2272588,114841
16557,2268740,113823
14260,2277935,116326
14090,2276133,115879
15534,2277619,116303
16168,2268640,113743
15370,2268790,113859
16343,2272588,114844
15110,2269140,113964
15048,2269153,113968
16183,2268740,113832
16611,2268690,113790
14318,2275074,115491
16418,2268740,113844
15347,2275929,115851
15269,2277187,116247
16278,2270804,114325
16239,2270330,114160
15642,2270804,114324
14196,2274110,115150
16225,2268740,113816
15381,2277117,116179
15088,2275929,115851
15266,2269140,113954
16035,2272549,114804
16557,2268740,113829
13993,2275908,115849
15089,2277187,116249
14046,2276150,115898
15448,2270804,114304
15291,2277145,116212
16195,2272575,114833
16033,2270883,114367
15436,2272588,114842
12635,2272149,114649
16160,2270804,114341
16470,2268371,113661
11947,2269094,113933
15104,2277173,116237
15358,2271648,114474
15321,2275887,115828
12781,2269975,114103
15428,2272588,114849
13030,2276672,116005
15469,2275866,115790
9701,2275203,115572
15367,2268690,113774
15173,2277173,116231
14098,2276672,116003
15258,2270330,114128
15128,2275866,115791
16023,2273329,114942
13009,2276672,116004
12952,2276133,115892
15349,2277187,116245
15367,2268640,113738
15144,2275908,115832
15272,2275866,115795
16278,2272670,114883
15272,2275866,115793
14181,2269975,114104
16500,2272549,114807
15043,2274724,115342
15138,2275887,115817
15128,2275866,115790
14304,2275119,115540
14131,2276167,115914
16183,2268690,113791
15374,2277103,116166
15106,2275866,115802
12841,2275119,115540
14373,2277145,116215
15532,2275908,115834
13973,2275887,115822
13951,2276868,116048
13977,2276672,116005
14340,2275110,115528
15128,2275887,115819
16033,2270883,114366
15352,2277619,116306
14025,2274099,115133
13993,2275908,115839
14283,2274193,115162
16303,2272549,114803
16160,2270330,114193
14103,2274255,115200
15240,2277187,116245
14400,2274088,115125
14134,2274088,115124
16023,2268640,113708
13958,2276672,116006
15272,2269140,113963
15253,2277187,116247
16554,2268640,113738
16500,2270804,114349
16557,2268640,113723
16394,2268790,113855
14399,2271759,114505
12621,2275487,115653
16022,2270330,114159
15099,2269153,113975
15110,2269140,113962
15370,2268640,113710
16619,2270330,114149
14045,2274740,115358
15406,2270883,114370
16611,2268399,113691
16643,2268315,113622
16437,2270883,114367
13095,2276920,116091
16104,2270804,114306
16493,2270883,114365
15202,2277619,116307
15480,2268399,113690
16018,2272588,114847
15484,2277187,116247
14013,2275083,115504
12627,2274450,115273
16183,2272549,114805
12683,2275377,115618
16027,2270330,114181
14494,2275083,115502
14362,2274088,115123
15491,2270409,114282
15491,2268315,113624
14203,2277145,116212
15291,2277103,116172
15480,2272670,114882
15293,2268399,113690
11798,2272393,114743
16711,2272426,114776
16379,2273329,114940
16239,2270409,114282
15560,2271648,114475
13948,2271772,114515
15130,2275908,115833
16436,2268740,113825
16092,2268399,113694
11723,2274450,115274
16611,2268690,113787
16183,2268690,113792
16437,2273329,114942
16343,2272601,114853
16313,2270883,114370
15219,2271648,114473
13037,2274213,115183
15346,2271648,114475
13095,2275866,115801
11689,2275908,115836
11667,2269102,113944
15027,2271648,114475
14203,2270330,114173
16136,2270409,114228
15110,2269153,113974
16410,2272549,114801
16418,2268640,113747
16293,2268740,113832
14022,2276672,116005
15181,2277619,116302
16160,2270804,114343
16168,2268690,113790
15339,2277619,116306
15461,2277131,116191
12965,2276167,115914
14503,2275929,115852
12064,2275734,115757
15104,2275908,115831
16052,2273329,114944
16177,2272575,114835
16023,2270883,114366
16418,2268740,113847
16314,2272588,114841
14086,2274203,115173
11689,2277619,116302
11911,2275887,115817
16293,2268343,113636
13095,2275929,115852
15431,2277103,116167
16611,2268790,113856
16500,2268315,113629
15027,2275908,115833
15494,2270082,114109
15532,2271648,114474
15272,2275866,115800
15554,2270409,114242
15602,2277131,116201
14469,2276150,115908
11752,2269062,113904
14159,2276133,115887
15272,2277173,116239
14036,2276672,116003
16531,2268343,113650
15406,2272670,114886
11619,2269975,114104
14145,2275887,115811
14686,2276150,115911
16160,2270409,114219
16531,2272575,114835
16263,2272588,114840
15048,2277103,116165
16306,2272588,114848
10747,2275929,115851
16018,2270409,114231
16183,2272575,114829
16557,2268690,113782
15128,2275866,115798
15271,2277103,116167
15227,2271648,114474
16168,2270330,114137
15367,2275908,115837
16035,2268640,113705
11067,2274442,115261
15660,2268790,113856
16611,2268343,113639
15106,2269140,113955
16436,2270409,114237
11760,2272163,114664
12999,2274088,115126
15129,2275908,115843
16117,2270804,114305
15291,2268399,113690
16619,2270409,114278
16313,2272670,114886
15461,2271648,114474
16468,2272601,114851
16389,2272588,114846
14456,2273433,114960
14446,2271759,114499
15099,2269153,113977
16619,2268640,113749
16183,2268740,113840
14021,2271746,114484
14086,2274213,115183
13993,2275908,115843
11689,2275908,115832
16008,2270330,114129
16418,2272670,114883
11689,2275887,115818
16160,2268740,113829
14288,2277619,116304
15266,2277089,116153
15647,2275929,115854
12671,2275211,115580
11043,2275211,115583
15382,2271785,114527
16495,2272549,114803
16239,2270330,114192
15575,2276672,116003
15491,2270330,114181
16183,2268640,113730
12695,2275211,115581
16292,2270409,114282
14549,2274260,115204
15241,2271648,114475
16033,2270330,114191
15427,2275887,115815
15603,2276133,115880
14055,2275074,115492
13910,2271759,114507
14264,2271759,114506
12937,2277041,116124
16183,2268640,113729
14145,2274099,115137
13969,2276920,116091
14423,2271648,114474
16291,2270409,114217
16611,2268343,113645
14286,2276770,116015
14282,2271759,114505
16183,2268640,113745
11751,2275887,115819
16183,2270330,114169
15048,2269140,113956
11760,2272129,114630
16611,2268690,113779
15402,2273329,114940
16113,2268315,113614
16418,2268399,113690
15348,2268315,113606
12850,2271759,114501
16023,2270330,114151
16365,2270883,114368
16059,2272601,114851
16020,2272549,114809
16177,2272601,114851
15110,2269140,113963
15104,2277117,116176
16643,2272549,114809
14046,2274099,115135
14061,2271772,114516
16177,2270409,114207
14362,2277025,116109
12013,2275929,115852
16611,2270804,114350
16600,2273329,114945
16643,2272601,114852
16183,2272588,114841
15128,2275908,115842
16611,2270804,114361
16418,2268740,113845
15067,2275929,115854
15243,2277187,116246
15196,2277187,116245
16293,2272549,114810
16557,2268690,113774
15491,2268371,113679
14290,2274740,115357
16418,2268740,113846
15048,2277187,116245
15045,2275887,115828
16168,2268790,113856
15266,2277117,116176
15370,2270330,114163
15272,2271648,114473
16554,2272575,114836
16418,2272670,114882
16337,2268640,113740
15128,2277619,116306
15071,2277117,116184
15402,2268640,113727
14301,2271772,114521
16493,2268399,113689
15151,2270082,114110
14311,2276150,115909
12850,2276881,116054
16611,2270330,114137
14219,2275728,115750
15291,2277089,116153
16160,2268740,113837
16711,2272405,114756
16495,2272588,114843
16183,2268690,113783
15275,2271648,114473
14436,2275908,115848
15272,2277159,116225
14346,2269166,113982
16183,2272575,114834
16245,2272670,114882
15048,2277103,116163
14283,2276776,116022
13969,2271785,114529
15087,2277187,116249
14418,2276133,115885
16611,2270330,114168
14404,2275110,115527
15568,2277089,116159
12823,2269062,113903
15124,2277187,116249
15379,2277187,116247
16023,2270409,114257
16423,2270883,114370
14269,2275908,115834
15461,2270804,114324
15104,2277131,116197
15305,2277075,116141
10029,2271746,114490
12778,2275908,115846
15123,2271648,114475
14441,2275092,115509
16231,2270804,114324
15367,2268371,113677
16437,2268790,113856
13955,2269153,113969
16554,2268790,113858
13087,2268640,113745
16499,2272670,114884
16219,2270804,114287
15449,2277075,116133
16160,2272601,114852
14269,2275908,115832
14055,2275101,115518
16183,2268740,113839
10591,2275211,115580
12855,2277619,116307
16293,2272601,114853
12131,2268690,113770
16183,2268315,113612
12653,2272156,114657
16007,2268740,113826
14065,2274110,115145
16470,2270330,114146
14437,2271759,114502
15198,2277131,116189
15048,2275929,115853
16611,2270330,114151
14090,2276133,115883
13953,2271759,114508
15532,2275929,115854
14351,2277159,116221
15585,2277619,116304
11689,2275887,115809
16418,2268740,113841
15302,2269166,113983
15124,2277131,116201
16035,2272601,114853
16208,2272601,114851
16436,2273329,114940
16104,2272601,114851
16101,2270330,114173
16611,2268343,113654
15239,2275866,115790
16423,2272575,114835
16164,2270409,114225
16019,2270804,114295
16160,2268740,113838
15115,2277103,116169
15104,2277145,116205
16613,2272670,114882
16611,2270330,114182
15280,2275929,115851
15053,2271648,114473
16160,2270409,114245
12850,2276672,116004
15381,2277075,116133
15272,2277103,116166
14358,2276672,116005
14549,2274272,115219
15272,2277103,116173
15173,2277131,116190
15442,2268790,113855
15349,2277103,116167
16168,2270409,114218
15113,2277619,116304
14399,2271746,114491
14123,2272670,114882
16437,2272670,114884
14203,2277131,116197
15603,2277173,116232
16619,2272575,114826
15302,2269166,113981
15611,2277089,116157
15461,2272670,114884
15334,2271648,114474
15108,2275866,115794
16611,2268315,113608
15435,2271648,114474
15562,2271648,114474
15104,2275866,115796
16020,2272575,114836
16195,2268740,113826
12940,2274208,115178
15086,2275929,115852
14550,2271772,114518
15365,2271648,114473
15026,2277187,116248
15113,2275908,115837
14173,2270804,114319
16554,2270409,114282
14415,2271648,114474
16611,2268343,113634
15628,2275929,115852
16381,2272601,114853
15253,2277173,116243
13036,2271772,114517
16117,2270883,114365
16627,2273329,114940
16160,2268740,113836
14233,2277131,116194
15265,2277145,116203
15240,2277103,116167
15138,2277619,116304
15441,2273329,114941
16164,2272575,114833
14482,2277619,116306
14046,2276150,115904
16611,2268690,113784
13123,2269975,114104
16023,2268790,113856
16104,2272670,114885
15658,2272670,114885
16219,2268740,113838
15220,2275908,115832
15641,2277075,116134
14259,2274088,115125
14282,2271759,114504
15347,2277619,116303
16582,2268371,113666
15027,2277131,116193
16239,2270330,114193
16291,2270804,114325
15173,2271648,114472
16183,2270330,114152
12870,2275101,115519
15035,2277619,116303
13142,2269975,114103
15106,2277117,116176
11777,2271772,114519
16531,2272588,114839
15148,2271648,114475
14001,2276770,116016
16239,2270330,114148
16164,2270804,114306
15445,2277619,116307
16263,2270804,114339
15424,2270082,114108
14383,2274088,115122
16389,2272670,114887
16611,2270409,114218
14070,2274740,115357
16160,2273329,114941
16263,2270409,114242
16442,2273329,114941
15035,2277103,116169
15641,2277187,116245
16418,2268640,113744
16293,2273329,114940
15593,2275929,115851
14225,2269975,114104
14351,2275887,115812
11933,2275203,115573
14418,2276133,115886
16023,2268740,113843
14123,2272670,114883
15329,2277187,116248
15110,2269140,113956
13969,2271746,114490
16104,2272670,114886
15240,2271648,114473
15208,2275887,115825
15370,2270330,114162
15367,2268740,113838
12863,2274374,115242
15467,2277187,116249
14351,2277089,116153
10745,2275499,115665
15585,2271648,114472
15448,2270883,114365
15298,2277187,116245
15128,2275908,115831
15067,2271648,114474
12841,2269975,114104
15544,2277619,116302
15253,2277089,116159
16219,2272601,114852
15369,2276672,116004
16183,2272601,114853
15335,2277145,116203
15070,2277117,116184
16160,2270409,114220
14345,2272670,114887
16619,2268315,113612
15558,2270883,114369
16018,2272549,114805
16113,2272549,114810
16684,2277187,116245
16557,2268740,113824
16160,2270409,114229
16219,2268371,113675
15637,2272575,114834
16423,2272601,114851
12863,2274377,115245
16269,2268399,113690
16611,2268315,113625
16168,2268315,113623
11915,2275203,115572
14358,2277580,116289
15367,2275908,115843
15480,2268399,113689
16278,2268690,113757
16219,2268371,113679
15241,2277075,116142
14338,2271746,114489
15489,2270082,114110
15283,2277103,116163
15280,2268399,113689
16239,2272562,114819
16018,2268740,113840
16291,2270330,114173
15546,2277619,116304
16289,2270330,114133
15021,2271648,114475
16101,2272670,114882
15370,2270409,114250
15113,2269166,113980
14354,2271759,114506
16124,2272549,114810
11713,2274368,115237
14346,2275929,115852
11616,2269094,113937
16557,2268690,113775
16418,2268740,113850
14455,2270883,114368
13977,2271785,114526
15250,2275887,115813
12727,2275211,115579
15217,2273329,114941
16418,2268640,113748
15106,2277103,116172
15547,2268399,113690
15544,2271648,114474
16619,2270883,114368
16168,2272562,114818
15266,2277159,116220
16278,2272588,114842
11914,2269078,113921
11701,2275203,115573
13129,2277619,116304
14351,2277145,116212
14456,2276779,116024
14119,2274099,115138
16418,2270883,114365
16470,2268371,113662
15198,2277173,116234
16611,2268690,113785
11713,2275203,115575
14345,2268399,113694
16194,2270330,114137
15104,2277159,116220
14380,2271785,114532
15027,2277145,116207
11689,2275908,115845
12645,2274077,115110
15070,2277619,116302
13087,2268690,113792
15110,2269153,113968
4010,2272156,114657
12131,2268640,113708
14283,2274088,115123
14417,2276150,115911
14171,2274088,115128
15414,2268790,113860
15377,2276672,116004
12937,2275887,115828
14080,2276133,115883
15272,2269153,113977
16611,2270883,114366
16023,2270804,114349
15454,2269166,113979
14351,2277187,116248
14045,2274724,115342
15611,2276672,116003
16168,2270883,114367
16712,2272132,114633
15381,2277103,116170
16490,2268790,113855
16474,2272670,114883
10101,2272238,114718
16239,2270330,114159
14380,2271785,114533
15358,2275929,115854
16160,2270330,114167
16018,2272588,114841
15108,2277619,116306
16018,2268343,113636
15637,2268790,113855
12715,2272145,114646
16289,2268790,113855
14351,2269153,113969
16611,2270330,114185
15230,2277619,116302
12681,2274450,115273
14058,2271772,114512
16383,2272549,114804
16024,2273329,114942
16293,2270330,114172
16183,2270330,114200
16531,2270409,114271
16183,2270330,114198
15637,2270804,114333
16007,2272575,114835
16168,2268690,113785
15272,2277187,116245
15162,2277103,116167
15092,2275908,115848
16619,2268343,113651
14005,2274088,115125
16423,2272670,114886
16160,2270330,114138
16219,2268790,113859
14011,2276920,116091
13969,2276907,116088
16130,2268343,113650
16023,2272549,114807
13963,2274203,115175
14046,2276150,115899
16611,2270883,114367
16168,2272588,114846
13977,2271785,114534
15272,2277131,116199
13915,2274088,115123
15099,2277103,116167
15521,2276672,116003
16643,2272588,114845
16195,2268740,113828
16389,2268790,113857
15110,2269153,113975
15045,2275929,115854
12888,2275929,115852
16557,2268690,113778
15448,2268399,113689
15348,2276672,116003
16660,2275203,115574
16474,2268399,113690
15301,2271648,114473
13977,2275887,115820
16183,2268690,113781
12714,2274720,115339
13944,2274077,115112
16611,2273329,114942
15048,2277103,116167
15592,2277187,116249
15035,2277145,116212
16611,2270409,114228
12870,2275119,115537
16611,2268343,113657
14345,2270409,114222
16035,2268690,113755
15272,2275866,115806
16436,2270804,114354
15272,2277117,116181
16117,2268399,113689
12964,2277619,116305
16018,2268640,113745
16219,2272549,114801
16160,2268740,113824
16625,2272670,114884
16127,2272670,114883
15480,2272601,114851
15476,2275929,115854
16611,2268315,113623
14239,2276672,116004
14029,2273888,115074
16239,2270804,114338
16168,2272575,114828
16619,2272562,114812
15317,2275929,115851
16160,2270409,114216
14019,2274720,115337
15367,2275866,115807
15469,2277619,116303
15361,2275908,115841
16394,2268315,113612
15026,2275908,115846
13087,2268690,113791
16394,2268740,113839
15064,2277131,116200
16023,2272549,114800
14104,2276672,116003
16543,2272575,114836
16554,2272575,114829
15436,2272549,114806
15141,2271648,114473
15173,2277075,116134
15272,2277145,116214
15070,2277159,116228
16183,2270330,114139
13087,2268690,113789
14086,2274110,115144
16032,2270804,114305
16160,2268740,113840
14025,2274099,115137
15070,2277089,116157
15106,2277117,116175
16474,2268790,113856
15035,2277173,116240
12006,2274099,115138
16160,2270804,114333
15266,2269153,113972
11912,2274442,115265
16183,2268740,113829
15253,2271648,114474
15585,2277187,116245
14373,2271648,114475
15096,2277075,116135
16160,2268790,113855
15653,2272670,114884
15104,2277159,116218
16619,2272588,114840
14228,2271759,114497
15587,2272575,114836
16231,2272575,114833
14174,2276920,116090
13950,2274986,115454
15442,2268790,113860
16219,2272575,114834
16422,2273329,114944
13927,2271785,114527
12757,2274110,115150
16394,2268640,113738
15048,2277131,116193
16113,2270409,114282
16495,2268790,113856
14383,2276672,116004
15637,2268371,113679
15291,2277619,116302
16418,2268740,113851
14180,2274744,115363
16418,2272588,114846
11618,2275195,115565
16418,2270883,114366
14118,2271746,114487
15128,2275887,115820
14286,2276779,116024
14380,2271759,114505
12899,2274970,115437
10702,2274213,115183
16531,2268371,113667
15592,2269153,113975
16519,2272588,114845
14173,2277103,116171
15291,2270330,114185
15271,2269166,113980
16611,2270409,114232
14308,2276920,116091
13087,2268640,113741
12863,2274368,115236
16023,2268371,113663
15441,2268790,113855
15039,2277173,116242
15283,2277145,116206
11689,2277619,116303
16383,2270409,114242
12681,2275499,115667
16543,2270804,114338
10745,2269070,113912
15208,2277145,116212
15064,2271648,114475
12635,2272132,114632
15649,2277619,116306
14283,2277041,116126
16160,2270804,114362
9090,2269153,113976
11043,2272156,114656
16611,2268315,113615
15280,2271648,114474
16418,2268640,113746
12880,2271772,114520
12954,2277619,116307
16557,2268640,113722
13028,2276150,115898
13940,2276150,115897
15358,2268399,113690
16611,2270804,114363
16127,2268790,113856
16303,2272575,114832
13095,2271759,114506
14549,2274724,115341
14549,2274728,115345
15428,2272670,114882
15232,2275929,115852
15534,2271648,114474
16136,2270330,114173
16007,2268640,113746
16312,2272601,114852
16183,2268315,113611
11778,2275929,115852
13945,2274088,115124
15124,2277187,116245
12715,2272129,114630
15175,2277619,116306
15031,2275887,115828
16183,2268740,113837
15272,2277103,116162
15134,2269153,113969
14373,2277075,116137
15164,2277173,116243
14346,2275908,115841
16113,2272601,114852
16231,2270804,114305
16096,2272575,114832
16611,2268343,113650
13101,2277025,116109
15568,2276672,116005
15276,2277619,116307
15130,2271648,114473
11548,2276116,115875
16531,2268343,113639
15402,2270409,114242
14512,2271759,114506
15637,2268640,113742
15452,2269166,113979
15482,2277187,116246
15482,2269166,113980
16643,2268315,113614
15047,2271772,114516
16183,2268690,113786
15164,2277089,116159
14127,2271759,114497
12923,2274458,115276
16611,2270330,114150
12727,2275211,115577
14221,2276672,116005
16474,2268640,113734
14090,2276133,115881
10745,2275487,115653
15031,2269153,113972
16113,2268690,113801
12993,2274099,115139
16092,2272670,114885
16113,2268790,113860
15641,2277619,116304
16394,2268343,113640
15276,2271648,114475
15104,2277173,116234
15367,2275887,115821
14342,2274110,115149
16643,2268315,113618
15358,2277619,116303
13068,2277619,116304
14005,2276150,115911
16611,2270804,114330
15243,2271648,114473
16160,2270804,114331
12823,2269102,113942
15137,2277187,116249
16160,2270330,114169
16219,2268740,113840
15370,2272601,114853
11723,2274458,115281
13034,2276672,116003
15104,2275908,115832
15298,2277619,116304
15461,2270804,114347
16557,2268740,113825
16418,2270330,114189
16339,2273329,114940
11532,2275203,115572
16611,2270409,114215
16306,2270883,114369
15500,2268399,113691
15361,2275887,115814
15350,2277619,116304
14411,2277619,116304
14351,2277117,116175
14174,2274110,115147
14546,2271746,114490
15449,2277103,116162
16611,2270330,114153
15598,2270330,114173
16160,2270330,114183
14464,2275929,115855
15598,2270804,114305
15272,2277187,116249
14492,2277117,116177
14255,2269975,114103
15120,2271785,114532
15067,2275887,115819
15372,2277619,116302
16291,2270409,114222
16606,2268790,113855
16619,2270804,114319
15071,2277159,116221
16300,2273329,114943
15071,2277619,116303
14151,2276167,115914
13919,2274213,115185
14244,2271746,114491
16582,2268790,113855
16183,2270330,114170
15568,2277619,116305
16557,2268640,113730
14180,2274736,115353
16160,2270804,114360
16418,2268640,113751
15210,2277619,116306
14132,2276133,115882
14280,2275929,115851
16183,2268640,113733
14127,2274099,115133
15208,2275908,115838
14060,2275092,115514
14151,2276167,115913
14353,2276770,116015
15138,2275887,115816
16611,2270409,114217
13963,2273424,114951
14435,2276116,115867
16104,2270330,114128
15193,2271648,114474
16183,2268740,113842
16183,2268640,113740
15446,2270330,114177
16169,2272549,114805
16023,2268640,113752
13058,2274088,115126
16619,2272670,114888
15495,2271648,114475
16531,2268315,113617
16263,2272549,114804
16278,2268315,113605
15480,2270883,114366
16468,2270330,114137
15104,2277173,116235
12888,2275929,115853
16437,2272670,114883
15532,2275887,115827
15560,2271648,114473
14197,2276672,116003
16160,2270330,114136
15104,2275908,115836
13993,2275908,115848
16231,2270883,114371
11554,2275211,115582
15272,2277131,116201
16183,2268690,113782
15449,2277089,116151
16582,2268371,113662
14099,2276672,116004
12714,2275734,115757
16493,2268790,113857
16018,2268740,113838
14350,2277025,116109
16293,2268640,113738
16113,2268690,113797
15121,2277103,116167
15066,2277187,116248
16183,2272575,114825
12727,2275211,115581
15370,2268640,113713
15595,2268690,113784
16239,2272588,114844
16160,2268740,113832
15256,2271648,114474
16557,2268640,113724
16611,2268690,113788
15350,2277145,116210
16023,2272670,114882
16611,2270804,114340
16495,2272575,114832
15104,2271648,114474
15305,2271648,114475
11043,2272145,114645
16104,2272575,114830
16219,2268371,113680
15137,2277145,116208
16554,2272549,114805
15019,2277187,116245
15480,2270883,114367
14434,2269975,114104
16490,2273329,114941
16437,2268399,113690
16032,2270330,114166
15544,2277619,116306
15374,2270883,114369
16343,2270409,114282
16194,2272575,114833
11586,2277187,116247
15164,2271772,114516
14264,2271772,114517
11532,2272393,114744
16017,2272588,114847
14181,2275083,115500
13925,2271772,114511
16183,2268640,113738
16278,2270883,114367
16500,2268315,113619
14292,2276133,115879
16187,2272670,114884
15641,2269166,113980
16153,2268399,113693
14180,2274712,115329
14418,2276133,115882
12950,2274088,115126
16468,2268790,113856
16291,2268790,113856
15637,2272601,114852
15137,2271648,114475
16493,2272670,114884
15603,2276133,115888
16023,2268640,113736
15173,2277075,116133
16117,2270330,114158
15256,2270082,114109
16531,2272549,114807
14411,2276133,115882
11025,2275887,115827
15272,2275866,115804
16113,2270883,114369
13087,2268640,113742
14549,2276672,116006
15602,2277103,116167
14415,2269166,113979
12830,2271772,114514
15317,2271648,114474
14103,2275110,115534
16023,2272670,114883
16611,2268343,113656
11752,2274450,115268
15032,2277619,116307
15428,2272549,114808
13923,2276672,116005
14345,2270804,114305
16023,2268343,113647
15128,2270082,114108
14262,2275110,115530
15221,2277173,116234
15217,2268790,113855
16113,2268790,113859
14346,2275929,115853
16365,2273329,114941
15587,2272588,114845
15530,2275929,115851
16557,2268640,113729
15031,2271648,114474
16111,2272601,114852
16289,2270409,114242
16160,2270804,114351
16394,2270409,114273
15111,2277187,116247
15562,2276672,116003
13960,2271759,114507
14409,2274110,115144
16437,2272670,114882
16423,2273329,114944
13993,2275908,115842
16488,2270883,114370
15221,2277145,116206
15441,2272670,114883
16627,2273329,114942
16195,2268740,113829
14019,2276672,116003
16018,2268790,113856
16183,2268690,113785
16611,2268343,113651
15024,2271648,114475
11689,2275866,115793
15593,2271648,114475
13948,2271759,114498
14183,2275101,115525
14437,2271759,114508
16160,2270409,114230
16379,2268790,113857
15267,2271648,114474
15516,2268399,113691
15637,2268790,113857
16113,2272670,114887
15641,2277619,116302
15266,2277131,116190
14371,2271759,114502
15370,2272670,114886
15367,2268343,113644
16020,2272601,114851
15287,2271648,114475
14510,2272588,114845
11947,2269062,113904
16293,2270883,114367
15367,2268399,113690
16160,2270330,114166
16183,2272588,114846
16160,2268740,113831
11798,2272411,114762
16436,2268640,113725
11712,2276394,115953
11043,2272142,114642
15346,2272670,114883
16611,2270409,114231
14417,2276150,115902
15106,2277117,116177
14174,2274110,115149
16490,2272670,114884
13087,2268640,113743
14351,2275908,115835
15335,2277187,116245
11555,2274466,115286
16035,2270883,114367
14485,2275866,115803
16183,2268315,113625
13977,2276150,115896
16490,2268790,113856
15367,2268740,113845
16018,2268740,113843
10494,2274458,115279
12635,2272163,114663
15592,2275929,115851
15256,2277619,116304
15123,2277619,116306
12884,2274099,115135
15334,2276672,116004
15272,2275866,115803
16291,2270409,114220
12927,2277619,116304
16160,2272670,114883
15480,2272588,114845
15104,2277619,116304
12823,2275493,115658
16442,2272670,114883
16183,2270330,114171
16304,2270883,114371
11969,2271785,114532
15649,2269140,113960
15208,2275908,115847
14099,2274088,115120
15128,2275866,115807
15047,2277187,116245
14308,2275866,115792
15198,2275887,115816
12621,2275493,115658
15242,2275908,115847
16627,2270883,114367
15283,2277117,116178
16160,2270804,114342
16219,2268399,113690
15229,2270883,114368
14364,2276770,116015
15317,2277187,116249
15534,2271648,114475
13927,2274110,115144
15461,2277103,116167
15027,2269153,113976
14038,2271772,114517
12627,2275381,115624
15291,2277131,116201
16343,2268790,113856
16183,2272575,114828
15349,2275929,115854
15239,2277619,116304
15032,2277619,116302
15480,2272670,114888
15374,2277173,116240
16292,2272588,114842
16219,2268371,113676
11559,2274088,115124
14301,2269153,113975
14290,2274724,115341
14290,2274728,115345
16306,2268790,113856
13077,2269166,113979
14336,2271772,114512
14097,2274110,115149
16582,2270330,114173
16018,2268343,113645
15445,2277619,116306
15071,2277103,116167
16339,2268399,113689
15234,2271648,114474
14456,2276773,116018
15128,2275908,115843
16160,2268399,113690
15480,2271648,114475
16183,2268315,113623
14351,2275929,115852
16394,2270330,114151
14173,2277145,116211
16627,2270883,114366
16153,2270330,114177
16291,2272601,114852
15637,2268790,113856
14364,2276776,116021
14201,2276133,115891
15381,2277173,116235
16282,2272575,114828
15473,2275908,115845
13919,2275908,115847
15110,2269153,113972
14271,2276672,116005
15441,2272670,114882
15253,2277619,116307
15104,2275908,115837
15151,2275908,115847
15031,2277619,116304
15050,2275887,115819
12889,2275908,115833
15370,2268740,113812
13087,2268690,113794
14173,2277089,116157
15412,2271648,114473
16183,2270330,114185
16611,2270409,114246
13943,2276133,115886
16300,2270883,114368
14021,2271772,114510
15134,2271648,114473
15441,2268399,113690
15025,2277619,116303
16292,2270330,114141
16490,2268790,113857
14038,2274110,115142
14308,2275908,115844
16160,2270330,114184
15643,2270883,114369
15272,2277117,116184
14103,2275110,115530
15055,2275908,115849
15104,2275929,115855
16339,2273329,114943
16143,2273329,114941
9228,2274442,115264
14157,2271785,114531
16183,2270883,114367
15280,2277619,116307
16160,2272670,114882
14346,2277187,116248
16023,2268371,113680
13030,2275866,115793
16160,2270804,114332
13087,2268690,113790
11931,2275866,115792
16379,2272670,114884
15570,2268399,113694
16113,2268690,113799
15108,2275908,115837
15380,2269166,113982
16127,2270409,114241
16291,2270409,114242
16219,2270804,114325
13940,2276150,115903
16282,2272588,114846
15462,2269975,114103
16096,2272549,114809
15611,2271759,114500
16611,2270409,114243
14308,2275929,115854
15551,2270082,114109
15295,2269153,113977
15402,2268640,113734
15096,2269153,113972
15217,2272670,114882
12741,2274458,115277
15050,2275929,115851
15027,2269153,113969
11969,2271746,114493
15124,2277173,116243
15562,2277089,116155
14353,2269002,113867
11742,2275195,115566
16289,2268399,113691
15637,2268399,113691
13969,2275866,115796
12830,2271746,114489
15272,2269153,113966
15291,2277075,116143
16289,2268740,113822
15035,2277173,116231
15198,2277103,116170
14544,2271759,114501
16434,2272575,114833
16024,2272588,114844
16557,2268740,113831
16195,2272588,114845
14174,2271759,114501
13917,2275110,115527
14262,2275083,115506
15024,2277131,116201
16338,2270330,114146
15354,2271648,114474
15451,2270883,114367
15104,2269166,113980
16263,2270330,114173
16364,2273329,114942
14371,2271759,114504
16582,2270804,114325
14380,2271785,114534
16183,2268740,113830
16436,2272588,114849
15406,2268790,113859
15299,2271648,114475
14388,2275119,115540
15335,2277159,116217
16613,2270330,114138
16611,2270804,114353
15186,2277619,116306
15164,2277187,116245
12952,2276116,115865
16023,2270330,114133
14417,2276150,115903
16300,2272588,114844
16183,2268740,113835
16061,2272575,114828
15055,2275866,115807
14118,2276133,115891
15491,2272588,114842
14416,2276167,115913
16313,2268790,113859
15334,2277187,116245
15043,2275119,115542
15322,2277103,116167
12040,2275211,115583
16219,2270330,114173
16418,2268740,113842
15562,2277187,116245
14351,2275887,115817
16033,2270330,114133
14296,2276672,116005
16394,2273329,114942
12645,2274077,115112
15128,2275929,115852
15221,2277619,116304
15064,2277619,116305
11590,2269062,113904
15568,2277187,116249
15446,2270883,114367
16027,2268399,113692
15113,2275929,115851
15153,2271648,114474
16611,2268315,113612
11689,2275908,115841
16619,2268399,113693
15361,2275929,115854
16619,2268790,113854
15203,2277187,116245
15444,2275866,115796
16035,2270804,114299
16611,2270804,114352
16061,2272588,114846
9090,2269153,113974
15217,2268399,113690
12902,2277619,116306
16319,2270883,114366
16019,2272575,114835
16582,2272670,114883
16314,2272549,114799
13012,2277619,116304
16183,2270330,114151
14181,2275092,115516
15070,2277103,116170
15402,2268790,113857
15272,2277619,116302
16643,2268315,113630
15266,2277619,116307
15016,2277619,116306
16023,2268740,113840
16225,2272549,114800
9090,2269153,113971
15480,2272575,114836
13995,2271772,114512
13969,2276881,116059
15210,2277103,116171
12131,2274260,115207
11532,2275203,115570
16557,2268640,113726
16113,2268399,113694
15402,2272670,114884
16337,2268740,113831
16488,2272670,114886
14351,2275866,115807
16052,2268399,113695
16231,2268343,113635
16231,2272588,114841
11616,2269086,113925
15026,2275908,115849
14128,2276133,115890
14070,2274732,115349
16183,2270330,114186
16018,2268740,113827
14380,2271785,114526
15302,2277187,116248
16023,2268790,113855
16187,2270883,114369
15448,2268740,113823
16557,2268690,113777
16263,2272575,114833
15547,2272601,114852
16582,2268399,113690
15436,2270409,114282
16010,2272575,114833
10101,2272238,114714
16160,2270409,114227
16018,2268399,113691
15198,2277075,116134
16183,2272549,114799
16474,2268315,113616
16024,2272575,114826
15230,2275908,115848
14346,2277159,116221
16557,2268690,113776
15370,2270883,114370
15637,2268690,113794
15283,2277173,116234
15266,2277145,116214
14065,2276133,115881
15266,2277173,116238
13042,2275929,115851
15253,2277131,116201
15381,2277159,116218
16582,2272670,114882
16551,2270409,114242
16339,2270883,114365
11689,2275887,115813
15140,2277187,116245
16225,2270330,114161
16300,2272601,114853
16035,2272588,114849
12027,2270883,114369
14356,2276672,116003
15024,2277619,116304
10574,2275908,115849
10745,2269102,113944
14242,2276672,116005
15587,2271648,114474
16606,2272670,114882
15462,2271648,114475
16291,2270409,114241
14388,2275092,115510
16163,2270883,114367
11043,2272129,114630
14307,2271772,114510
15067,2277187,116245
14465,2274110,115147
16183,2268690,113784
15484,2277131,116201
14465,2272670,114883
15104,2277145,116214
16017,2272601,114851
14400,2271785,114531
16164,2272549,114809
14380,2271759,114507
16474,2273329,114941
16113,2268315,113629
12131,2275728,115750
14425,2276672,116005
16611,2270330,114152
16485,2272670,114884
16394,2270883,114366
13940,2276150,115902
16160,2270409,114244
16711,2274380,115248
16490,2268399,113691
12714,2275737,115759
16383,2268640,113736
14341,2274110,115150
16183,2270330,114141
15104,2277117,116181
15367,2268315,113617
16018,2268740,113844
14023,2276116,115869
16183,2268690,113793
15106,2277089,116149
16611,2268690,113782
15162,2277619,116303
15420,2277619,116303
14480,2275110,115532
16113,2268690,113800
16144,2268315,113622
10924,2272220,114696
16117,2268371,113686
15050,2275887,115810
11575,2274213,115184
15406,2268399,113695
15048,2277103,116169
14469,2275866,115807
14045,2274260,115209
16436,2268399,113689
15124,2275908,115832
15104,2277075,116134
16183,2268690,113788
16582,2268790,113856
14145,2275908,115842
15283,2277159,116220
12131,2274272,115217
16306,2270330,114173
4010,2272132,114633
16389,2272601,114852
16231,2272549,114801
11912,2274466,115285
15267,2275929,115851
11774,2275481,115648
16183,2270330,114187
16278,2270330,114172
13940,2276150,115896
16183,2268740,113841
15446,2277619,116306
16611,2270804,114341
14118,2276133,115892
16381,2273329,114943
16160,2268740,113833
16611,2268343,113640
15367,2268640,113743
14535,2277025,116110
15198,2277145,116214
16313,2268399,113695
15035,2277145,116215
14372,2271759,114507
14254,2271759,114502
14279,2276672,116004
12778,2275929,115853
15164,2277187,116246
15265,2277619,116304
11689,2269975,114104
16582,2272670,114884
15402,2268640,113726
15452,2277187,116249
10652,2271746,114495
16394,2270330,114150
16183,2268399,113689
12841,2275074,115494
11689,2275887,115814
16023,2268371,113679
11946,2274458,115277
15137,2277145,116205
15480,2268343,113648
15272,2277089,116159
14656,2277025,116110
15151,2275887,115826
16364,2273329,114945
14187,2274110,115144
16035,2268740,113812
15210,2277131,116201
15381,2277145,116211
16339,2273329,114942
15045,2275908,115849
12830,2271785,114531
16531,2270409,114279
16113,2268690,113802
15217,2268790,113857
12006,2274099,115135
15475,2268399,113690
15272,2275929,115851
14052,2271785,114529
14313,2274970,115439
14269,2275908,115833
16293,2272588,114842
15477,2271648,114474
15603,2276133,115887
14041,2273876,115059
15437,2277103,116167
14374,2271785,114533
14134,2276672,116004
16557,2268690,113779
16052,2268790,113859
15035,2277103,116168
15540,2271648,114473
14465,2274088,115125
15448,2270330,114172
14496,2276167,115914
12728,2271746,114485
15164,2277619,116307
15104,2275908,115848
15240,2275866,115789
11667,2269094,113937
16018,2268640,113739
16113,2272575,114831
12940,2274213,115183
16160,2268740,113827
16293,2268399,113689
15173,2277145,116203
16008,2272670,114885
16010,2272575,114832
14495,2271746,114487
15177,2275929,115851
15272,2275866,115802
12986,2277580,116289
12794,2276150,115906
16383,2268399,113690
16023,2270409,114255
16023,2268371,113685
16160,2268399,113691
16100,2270330,114154
15330,2271648,114475
15067,2269166,113980
15298,2268399,113689
16582,2268790,113857
16306,2272588,114839
13095,2275908,115832
15110,2269140,113955
15093,2277619,116303
16018,2268740,113847
15459,2275908,115842
16194,2272549,114809
12722,2275493,115662
15317,2277131,116199
15208,2275887,115826
16035,2272670,114885
16239,2268399,113693
13928,2274099,115130
15106,2277117,116179
14168,2271759,114504
16225,2272588,114839
13961,2276779,116024
15128,2275908,115841
16339,2270883,114366
15262,2270330,114128
16474,2272549,114805
14290,2275110,115530
14245,2268399,113689
15611,2276672,116004
15128,2275887,115811
15104,2277117,116180
14358,2277584,116294
15270,2269166,113982
15335,2277159,116226
15441,2268399,113691
15217,2268790,113856
10745,2269062,113904
16418,2272575,114827
15138,2275887,115828
15552,2275908,115840
15099,2269153,113976
15270,2271648,114475
16643,2268315,113607
16619,2273329,114943
15040,2275908,115842
15248,2269975,114102
15272,2275866,115798
16643,2268315,113627
15173,2277173,116234
14351,2275908,115830
12850,2276868,116038
15603,2276133,115881
14279,2274088,115126
12940,2274203,115173
16611,2270804,114343
12021,2276672,116004
10115,2275211,115583
13971,2274088,115122
16383,2272575,114833
15484,2277187,116245
12865,2277619,116306
16160,2268790,113856
16289,2268640,113726
16008,2273329,114945
11555,2274442,115262
16231,2272601,114852
11947,2269102,113944
11723,2274442,115264
14340,2275110,115529
16490,2272670,114883
12065,2277619,116306
14358,2277584,116293
15253,2277187,116245
15585,2271648,114474
14345,2270883,114369
14296,2275929,115851
15572,2269153,113971
16306,2270330,114176
12966,2275887,115827
15050,2271648,114474
16611,2270409,114219
14118,2276133,115890
14446,2275929,115851
12006,2274099,115133
15637,2268399,113690
11043,2275195,115566
15211,2277619,116303
12718,2275203,115575
15151,2275929,115852
15532,2268790,113860
16183,2270883,114365
16557,2268690,113780
15570,2272670,114882
16183,2268315,113615
14353,2276672,116005
12030,2269078,113917
15491,2268315,113625
15250,2277075,116138
16018,2268740,113831
15374,2270804,114305
14044,2276672,116003
15467,2271648,114474
15099,2277145,116212
15128,2275887,115821
11752,2274458,115279
15217,2268399,113691
16474,2272575,114829
14219,2274732,115349
15441,2268790,113856
14492,2270883,114371
15104,2277159,116217
16023,2273329,114941
16468,2272549,114805
14308,2275908,115846
16153,2270330,114172
15367,2268640,113734
14239,2274099,115138
16289,2272670,114882
15562,2277619,116304
16018,2272670,114883
15210,2271648,114475
15035,2271648,114473
16413,2268790,113857
12030,2269094,113935
15419,2270082,114109
15330,2277619,116304
13020,2277025,116108
13930,2271772,114518
11548,2277619,116302
16027,2268399,113693
10745,2275499,115667
16035,2273329,114945
15137,2275929,115851
16436,2270883,114365
15370,2268640,113707
15096,2269166,113979
15221,2277131,116199
15335,2277145,116206
16239,2270330,114158
16183,2268640,113735
14512,2276672,116005
16343,2270804,114325
15221,2277103,116163
15335,2277075,116137
11760,2272132,114633
15146,2271648,114475
16611,2268690,113786
16557,2268740,113827
16023,2272601,114852
16557,2268740,113822
15208,2275908,115839
15097,2270082,114109
15367,2275887,115825
16606,2268399,113691
14128,2276133,115891
15660,2271648,114472
16183,2270330,114154
14345,2270409,114216
14145,2271772,114520
16183,2270330,114150
15367,2268343,113639
16183,2268640,113731
15450,2275866,115804
13086,2277619,116306
15121,2271785,114526
16413,2272670,114884
14286,2276773,116018
16582,2268399,113691
16183,2268740,113828
11912,2272414,114764
16383,2270330,114173
15104,2277075,116133
12667,2275195,115565
16018,2268399,113690
15148,2277619,116305
13919,2275908,115849
16023,2270330,114160
15148,2277131,116194
16278,2272601,114853
16032,2270804,114313
12682,2275381,115623
15272,2275866,115791
14045,2274752,115370
14286,2273870,115055
15335,2277145,116210
15367,2268371,113672
14351,2277103,116167
15338,2269166,113982
14549,2274720,115337
15463,2275908,115849
16474,2272588,114841
15272,2275866,115796
12815,2269062,113904
12871,2274088,115126
16470,2270330,114176
15049,2277187,116245
15124,2271648,114474
16490,2272670,114882
15118,2271648,114473
16436,2272575,114835
12970,2274986,115453
16160,2270804,114350
15367,2268790,113856
15272,2275866,115790
16225,2272670,114883
11936,2269975,114103
16443,2272575,114836
14233,2269166,113982
16627,2270883,114365
16117,2273329,114940
16231,2268371,113664
16183,2270330,114153
15210,2277145,116213
15511,2277131,116201
14351,2277159,116225
15363,2272670,114884
16032,2272549,114809
15535,2271648,114475
16018,2268343,113653
15173,2277089,116148
12986,2276672,116005
14032,2271772,114516
16531,2272549,114810
13973,2276672,116004
15448,2272588,114844
14201,2276133,115892
15067,2277619,116304
16160,2270804,114361
16437,2273329,114941
14345,2268315,113613
16339,2268740,113830
12827,2275493,115660
14038,2274099,115139
14123,2276167,115913
16611,2268315,113611
15104,2277173,116241
15417,2277619,116303
15020,2277619,116306
16183,2268640,113728
15641,2275929,115851
12635,2272142,114643
15480,2270330,114164
16113,2268315,113626
15302,2275908,115845
16490,2268399,113690
12976,2271772,114518
16343,2268399,113690
15417,2277187,116247
16231,2270409,114282
15372,2277187,116245
16278,2272575,114827
15637,2272670,114883
16018,2272670,114882
15272,2269166,113979
14132,2275908,115842
16160,2270330,114137
14481,2271648,114472
16319,2272601,114851
11752,2269070,113909
15048,2269153,113969
15272,2275866,115794
16018,2268740,113846
16160,2270330,114168
16033,2272601,114852
15370,2268640,113715
15258,2272549,114801
14123,2277103,116167
15266,2277075,116133
16183,2268740,113834
16101,2272575,114826
15140,2269140,113958
11777,2271759,114504
11760,2272156,114656
15374,2277619,116306
11931,2269166,113979
15066,2277619,116307
15388,2277619,116306
15151,2275866,115804
12027,2270883,114368
16470,2268399,113689
16557,2268640,113725
15272,2277619,116303
15404,2277187,116245
15130,2277619,116302
16168,2273329,114941
15134,2277187,116249
15078,2275908,115832
16225,2272601,114851
15451,2268399,113690
16023,2268640,113723
16117,2270330,114129
16339,2268790,113857
15367,2270082,114109
16306,2270330,114188
14279,2271759,114499
14281,2277619,116306
15217,2273329,114942
16519,2270804,114325
15027,2275908,115836
16531,2272588,114847
15560,2271648,114474
16160,2270330,114151
16519,2272575,114831
14292,2274099,115139
16300,2270409,114242
15024,2275929,115853
16101,2272588,114847
15048,2277619,116306
16643,2270409,114281
14351,2269153,113968
14380,2271759,114508
16113,2268399,113692
15217,2270883,114367
16183,2268740,113844
14037,2271759,114500
16582,2270883,114366
12815,2269086,113925
15106,2277159,116217
16024,2272601,114852
15350,2275908,115831
16611,2270409,114245
13963,2274203,115174
13956,2274110,115149
16160,2270330,114182
12858,2275203,115573
16606,2270883,114366
16278,2268399,113695
11764,2271648,114475
15604,2271648,114473
14038,2271759,114506
15113,2275929,115854
13910,2276150,115903
15066,2271648,114475
16160,2268740,113830
15283,2277089,116152
16490,2268399,113689
14173,2270330,114179
14400,2271772,114517
12794,2276150,115896
11548,2276150,115900
15611,2277103,116168
13087,2270330,114145
16306,2272601,114851
11050,2275866,115798
14351,2277075,116133
15073,2277173,116239
14286,2276672,116003
14543,2277619,116304
16365,2273329,114943
16168,2268371,113677
12827,2275493,115662
16278,2272549,114810
16160,2268740,113835
16023,2268740,113837
13017,2277619,116304
14190,2276672,116005
16711,2274377,115246
15066,2269166,113982
15600,2271648,114475
16018,2268740,113841
15025,2271648,114474
16289,2268315,113619
16394,2272670,114882
16343,2272601,114851
16219,2268740,113835
16643,2268315,113629
11616,2269078,113921
16225,2272670,114886
15138,2275887,115820
15043,2274732,115350
16319,2268399,113690
11912,2274458,115277
16024,2273329,114941
15522,2277187,116247
14196,2274110,115145
13032,2271759,114506
16582,2270883,114367
15572,2277103,116171
15217,2270883,114366
16611,2268315,113616
16611,2268690,113778
15070,2277089,116154
11914,2269094,113937
15637,2268399,113689
16423,2268399,113695
15110,2269153,113969
14418,2276133,115881
16314,2272575,114833
15106,2269153,113968
14261,2272575,114835
15043,2274752,115371
14465,2274213,115183
14097,2271746,114491
14070,2276672,116005
16436,2272549,114808
15087,2275887,115824
15480,2270330,114180
16160,2270409,114218
16183,2270330,114202
15230,2275908,115849
15280,2275929,115853
16010,2272588,114849
10494,2274442,115262
15018,2275908,115839
16024,2270409,114282
16490,2272601,114851
10702,2274213,115182
16231,2272588,114840
15072,2272670,114884
16306,2270330,114141
12870,2275119,115538
15221,2277117,116179
12681,2274458,115281
16470,2272601,114851
15138,2275887,115825
15291,2277159,116225
16195,2272549,114804
16434,2272549,114799
16339,2272670,114884
16611,2273329,114941
11946,2274466,115285
16194,2272588,114845
15309,2271648,114474
15283,2277117,116176
15451,2272670,114883
16611,2268690,113789
15522,2268399,113690
14102,2276672,116005
15448,2272549,114810
16389,2270804,114343
11575,2274213,115183
15151,2269975,114103
11752,2275381,115622
16183,2268640,113739
12681,2274466,115287
16278,2268690,113756
12746,2275493,115662
16239,2268315,113628
16113,2268315,113630
12870,2275083,115506
15370,2270409,114249
15381,2277089,116152
16611,2270409,114229
16611,2270409,114220
11861,2275203,115574
16606,2273329,114942
15143,2277619,116307
16611,2268315,113624
16183,2270330,114199
15035,2277131,116198
15295,2275929,115852
14416,2277619,116304
16144,2272588,114845
13915,2274088,115124
16291,2272601,114853
16554,2272588,114846
16339,2268399,113691
16168,2268740,113824
15033,2277187,116245
16291,2270804,114334
15335,2277089,116154
14046,2276672,116005
16225,2270883,114370
13038,2274377,115245
15110,2269140,113961
16018,2268740,113850
15253,2277103,116167
16183,2272670,114883
15546,2275929,115854
16113,2270330,114188
12863,2274371,115240
15240,2277619,116306
16418,2268740,113848
14342,2274110,115148
14283,2276770,116016
16017,2268790,113856
16531,2270883,114368
16418,2268740,113840
15367,2277619,116305
14005,2276150,115910
15148,2268399,113694
15603,2277619,116306
16166,2273329,114945
16490,2270883,114365
14456,2277619,116302
15441,2270883,114366
13087,2268640,113744
16219,2268343,113657
16239,2270804,114327
16619,2268690,113800
15173,2277117,116175
14351,2277117,116180
13977,2275908,115837
15106,2277187,116245
11026,2275187,115555
14324,2275866,115807
14140,2271772,114521
16557,2268740,113830
15405,2271648,114474
15641,2277619,116303
16470,2270883,114365
16113,2272601,114851
15556,2276133,115890
16024,2272549,114802
14455,2277187,116247
15595,2268690,113783
15446,2277145,116212
15108,2275908,115830
16452,2270804,114324
14351,2269153,113977
11616,2269102,113944
14351,2277103,116165
16144,2272575,114825
16293,2270804,114304
16452,2268790,113856
16303,2268740,113816
16474,2270804,114303
16183,2270330,114166
11931,2275929,115851
16183,2268640,113736
16160,2270883,114366
14116,2271746,114487
15367,2268315,113623
15035,2277131,116200
15367,2275908,115834
13149,2277619,116305
13904,2271772,114510
15272,2277075,116145
14045,2274255,115202
13910,2276150,115902
14346,2277117,116184
13085,2270082,114109
16611,2270330,114167
16239,2272549,114806
16306,2268399,113692
16183,2268740,113831
14291,2271785,114533
15491,2272549,114806
15568,2276773,116019
14345,2270409,114221
16383,2270330,114188
15027,2275908,115834
14022,2277584,116293
14124,2271785,114533
16239,2268371,113681
16183,2268315,113631
16160,2270330,114185
15067,2275887,115826
13087,2268690,113793
15176,2269166,113982
16493,2273329,114940
16365,2273329,114945
11751,2275908,115848
15441,2273329,114942
16519,2270330,114173
16611,2270330,114138
14351,2277103,116163
16183,2270330,114184
15272,2275866,115789
16627,2272670,114883
16092,2268790,113860
16442,2270883,114367
12861,2269975,114103
13927,2271746,114485
16160,2270883,114367
12040,2275203,115574
14372,2276116,115869
15421,2277619,116307
15043,2274756,115374
15361,2275887,115819
13082,2274193,115163
11912,2272411,114761
14543,2271648,114475
16557,2268343,113634
15272,2277075,116138
13946,2276672,116004
16018,2268343,113650
12931,2272139,114640
15048,2269140,113955
15367,2275887,115828
14437,2271759,114507
16554,2268343,113657
15461,2271648,114475
16017,2270409,114281
16611,2268315,113613
16018,2268740,113834
14134,2271785,114533
14242,2270883,114371
15104,2275866,115795
16418,2272588,114841
15048,2269166,113979
13016,2274736,115355
16436,2268315,113631
16160,2270409,114228
15050,2275887,115809
16519,2270409,114225
15346,2270883,114367
16096,2272588,114844
16160,2273329,114942
15611,2271785,114532
11912,2274450,115269
15283,2277173,116236
15402,2268399,113689
13931,2271746,114488
15560,2271746,114485
14282,2271746,114488
16018,2268740,113828
15250,2275887,115819
14549,2274740,115357
15544,2275908,115849
16183,2268399,113690
15276,2277187,116248
12850,2271759,114498
16293,2272670,114883
15438,2276672,116003
13969,2271746,114494
14090,2276133,115882
14399,2271772,114521
15217,2276672,116005
16008,2270883,114371
16611,2270409,114216
16303,2272588,114844
15406,2272601,114853
13087,2268399,113689
15089,2271648,114474
15110,2269153,113976
16582,2268740,113817
16167,2272601,114852
15546,2269975,114102
11760,2275203,115574
14254,2271772,114517
15441,2270883,114367
14260,2273870,115055
10827,2275929,115855
16379,2270883,114365
16418,2268640,113749
16485,2273329,114943
16306,2270883,114365
15035,2277075,116135
15262,2272670,114883
16183,2272549,114806
16582,2268399,113689
14353,2276639,115997
14351,2277619,116307
16183,2268740,113843
16474,2270409,114253
15106,2277145,116206
15048,2277103,116164
16007,2272549,114801
15139,2277619,116304
15227,2277187,116245
12897,2270082,114109
15603,2276133,115879
14127,2271772,114511
16282,2268343,113645
15637,2270883,114367
16582,2268740,113807
15312,2275908,115832
14025,2271772,114520
14337,2271746,114486
16383,2270330,114151
14371,2271759,114505
14214,2271759,114506
16231,2268371,113684
16365,2273329,114944
16418,2272549,114801
16293,2268790,113857
9090,2269153,113975
16490,2270883,114366
14494,2275092,115515
11559,2274099,115138
13993,2275908,115838
14113,2277619,116305
14270,2275101,115524
16611,2270804,114333
15575,2277145,116208
15130,2275887,115819
14308,2271746,114485
16394,2268399,113691
15427,2277619,116305
13995,2271772,114516
15283,2277173,116240
16557,2268740,113826
16183,2272670,114884
16168,2270804,114311
12907,2276672,116003
16611,2268790,113855
14118,2276133,115889
15603,2269153,113966
16474,2268740,113829
9992,2277619,116306
15480,2272549,114809
15153,2275929,115854
16023,2272575,114827
16302,2272601,114852
16519,2272549,114800
16231,2272588,114844
15154,2272670,114885
15602,2277619,116306
16183,2268790,113856
12683,2275386,115629
15280,2275929,115852
16160,2270409,114232
15367,2275908,115842
14326,2276150,115906
14469,2275866,115806
15469,2275908,115833
15239,2275866,115807
11616,2269062,113904
16293,2268640,113734
16643,2270804,114305
14316,2268640,113738
15637,2268315,113623
16023,2270409,114214
16643,2270330,114173
16278,2270409,114242
12952,2276116,115864
15035,2277145,116206
11043,2272156,114657
16018,2270883,114366
15430,2270082,114109
15420,2270082,114109
16611,2270804,114362
13925,2271772,114515
16289,2273329,114942
16018,2268740,113851
16023,2270804,114298
15283,2277117,116175
16436,2272670,114884
15104,2277173,116231
14199,2276672,116005
15128,2275908,115833
14280,2271648,114473
15087,2275929,115851
16610,2277187,116245
16490,2273329,114942
14686,2274203,115174
16611,2268343,113635
15347,2277619,116307
16304,2273329,114945
16413,2270883,114365
12040,2275211,115579
16160,2270804,114363
15272,2275866,115797
14403,2270082,114110
15467,2277075,116145
16340,2272588,114847
14290,2275119,115542
16436,2268790,113857
14399,2274110,115147
14366,2275887,115822
13014,2275887,115819
12021,2271746,114484
15121,2277089,116159
16136,2272588,114847
14358,2277580,116290
13920,2277619,116304
15480,2270330,114165
16183,2268640,113732
13919,2275908,115848
16008,2268399,113694
10591,2275211,115579
14079,2276133,115880
15048,2277131,116192
15420,2271648,114474
16183,2270330,114137
16183,2268640,113734
15291,2270883,114369
13995,2271772,114513
12757,2274088,115122
15071,2277103,116163
15124,2269153,113973
16018,2270883,114367
16319,2268399,113691
14417,2276150,115910
15210,2277103,116167
16239,2270330,114176
16531,2272562,114819
14399,2274088,115124
16611,2268690,113783
12830,2274088,115121
15035,2277145,116210
16627,2272670,114884
14401,2273876,115061
16394,2268690,113790
16160,2268740,113834
13095,2275908,115831
12871,2276868,116043
16643,2268315,113626
14086,2274088,115123
16183,2270330,114168
16035,2268399,113694
16606,2272601,114851
15217,2268399,113689
15033,2271648,114475
14035,2277025,116110
11969,2271759,114506
15712,2271648,114474
12932,2274110,115145
14372,2271772,114520
16160,2270330,114150
15363,2270883,114365
15367,2275929,115851
4010,2272139,114639
15379,2277187,116246
15637,2270883,114366
14397,2271759,114503
16289,2270883,114366
16619,2272549,114806
16543,2272670,114884
15641,2275929,115854
16183,2268790,113857
14314,2272670,114883
16219,2272549,114803
15592,2277619,116303
14043,2276672,116005
16160,2268740,113828
16490,2270883,114367
15240,2275887,115828
16611,2270330,114169
15653,2272575,114836
15031,2275866,115807
16611,2270804,114331
14242,2270804,114324
12937,2275929,115853
16619,2268740,113849
16160,2270804,114330
14550,2271772,114512
12728,2271759,114498
12030,2275493,115660
15381,2277117,116175
14019,2274752,115369
14549,2274756,115373
16643,2272575,114833
12727,2275203,115571
16160,2270330,114153
16303,2270804,114318
16360,2272575,114836
15208,2269140,113956
16160,2270409,114215
15532,2275908,115848
14173,2272670,114882
15048,2271648,114474
16291,2272588,114840
15031,2275908,115849
15525,2271648,114474
15365,2271648,114474
15660,2271648,114473
15637,2270409,114218
14184,2276920,116090
15259,2277619,116302
16032,2270883,114368
16611,2270330,114183
11618,2275187,115555
15272,2275866,115792
16611,2270804,114360
16035,2272562,114816
16554,2272670,114886
16160,2268740,113826
15033,2277619,116304
16018,2268640,113751
14103,2275083,115507
14341,2274088,115120
13969,2276894,116075
16304,2272670,114885
14353,2276635,115992
16168,2272549,114805
16418,2272601,114852
16519,2268790,113856
11798,2276382,115940
15208,2275887,115816
15272,2275866,115799
15048,2277131,116194
15266,2269166,113981
14381,2276167,115913
13917,2275119,115540
15164,2277103,116167
16459,2270330,114180
16010,2270330,114188
15250,2275887,115810
14353,2276773,116018
11043,2272135,114637
15516,2277619,116305
12627,2274466,115286
11933,2275211,115578
15104,2277117,116177
16160,2270409,114217
15106,2277131,116190
13917,2274720,115337
16291,2270409,114221
16052,2270330,114178
15361,2275887,115810
15048,2275887,115818
16611,2270330,114136
13927,2271772,114513
16183,2268690,113794
15346,2268399,113689
13094,2274088,115124
11798,2276385,115944
11798,2274377,115245
14187,2274110,115148
16183,2268690,113780
15106,2277619,116304
14002,2276167,115913
16219,2270330,114188
12027,2277187,116249
14390,2276150,115910
15266,2277117,116177
14241,2276672,116005
16582,2270883,114365
16339,2272670,114882
14103,2274260,115204
15301,2277619,116302
14456,2276672,116003
12827,2275493,115659
15134,2269153,113968
15471,2275887,115810
15436,2272575,114825
16130,2268790,113860
16183,2268690,113790
16160,2268740,113841
15558,2277619,116306
16183,2268690,113795
15587,2270804,114310
14127,2274088,115119
15480,2270330,114181
16018,2268740,113835
16436,2270330,114179
14090,2276133,115884
13095,2276868,116042
14001,2276779,116025
16160,2270804,114340
15335,2277103,116168
15451,2268790,113856
16394,2268371,113672
16018,2268343,113634
16291,2270409,114219
15096,2275866,115792
14457,2272670,114884
16239,2270330,114173
16418,2268640,113750
16343,2268790,113854
14113,2276672,116005
15106,2271648,114472
16343,2268399,113693
16423,2268790,113859
16292,2272575,114831
15140,2269153,113974
16239,2272549,114808
16113,2268315,113627
15061,2277619,116306
16183,2268690,113787
11050,2275887,115818
15173,2277117,116176
15363,2268399,113689
15261,2275929,115851
13082,2275908,115846
12937,2275887,115811
16582,2272588,114843
11914,2269102,113942
15148,2277145,116212
15217,2270883,114365
15026,2269166,113982
15572,2277619,116304
14086,2277025,116108
13976,2275887,115823
15171,2271648,114474
16437,2272588,114848
14346,2277619,116306
15441,2272601,114851
15595,2270409,114242
14090,2276133,115880
11689,2275866,115806
12727,2275211,115580
15452,2277145,116215
15404,2277619,116307
16557,2268640,113728
15148,2277187,116248
15035,2277187,116249
15070,2277103,116167
15065,2275908,115834
14686,2276116,115874
16183,2268640,113743
15491,2274966,115434
15073,2275929,115852
15033,2271648,114472
12830,2271772,114517
16164,2272588,114845
16474,2268690,113774
16231,2268371,113686
15367,2275866,115791
15148,2268315,113606
9090,2269153,113977
16413,2268399,113689
12757,2274099,115133
15603,2276672,116005
9010,2277619,116305
16611,2270804,114351
16557,2268640,113731
15381,2277131,116195
14401,2277619,116305
16625,2273329,114940
16365,2268399,113693
13932,2274088,115120
16443,2272549,114805
14219,2275101,115524
16365,2268790,113854
15448,2270409,114241
14494,2275092,115516
16183,2268315,113617
15663,2271772,114512
15035,2277131,116201
16557,2268740,113828
14324,2275887,115811
14046,2276150,115905
