student_id,activity_id,swap_weight,group_id,new_group_id
12827,2022604,1,105370,0
15641,2019838,1,104639,104641
15043,2018961,1,104397,0
14064,2023500,1,105698,0
12805,2026371,1,106516,0
15562,2019983,1,104683,0
11589,2026341,1,106486,0
15027,2023284,1,105633,0
15514,2016226,1,103351,103353
15369,2026720,1,106577,0
15359,2019647,1,104556,104573
12934,2025727,1,106333,106335
12642,2023611,1,105809,105810
15420,2018971,1,104407,0
15190,2018351,1,104155,0
13968,2023566,1,105764,105766
15061,2020178,1,104722,0
12028,2021341,1,105211,105214
15026,2018616,1,104229,0
13977,2025219,1,106163,106170
11709,2017446,1,103893,0
12950,2023510,1,105708,0
12626,2026381,1,106526,106527
11853,2026351,1,106496,106500
14487,2019001,1,104437,0
11562,2020875,1,104945,104947
11722,2025546,1,106264,0
12762,2026351,1,106496,0
15603,2018658,1,104271,0
12950,2023389,1,105688,0
11084,2016066,1,103266,0
12856,2023505,1,105703,105705
11899,2025587,1,106268,0
12871,2023389,1,105688,0
12764,2016442,1,103466,0
13925,2025199,1,106143,0
15514,2016296,1,103421,103423
15497,2024944,1,105989,0
15047,2019944,1,104644,0
15223,2019001,1,104437,104445
15585,2023040,1,105515,0
11084,2016082,1,103282,0
13085,2016400,1,103449,0
13996,2018819,1,104356,0
14401,2019001,1,104437,104443
14103,2019184,1,104469,104473
15544,2020178,1,104722,0
9640,2017588,1,103922,0
15097,2016286,1,103411,103416
13976,2018658,1,104271,0
13960,2019379,1,104538,0
13014,2023556,1,105754,105756
12959,2020666,1,104861,0
13942,2016392,1,103441,0
12722,2021312,1,105182,105185
14211,2017990,1,104010,0
14212,2018075,1,104070,0
11029,2025587,1,106268,0
12771,2020802,1,104922,104923
11902,2026381,1,106526,0
12712,2020986,1,105006,0
11683,2017606,1,103940,0
11958,2026059,1,106405,0
14100,2023576,1,105774,105783
11793,2026045,1,106391,0
13089,2018616,1,104229,0
14117,2020652,1,104847,0
12059,2016011,1,103236,103238
11946,2026038,1,106384,0
14001,2016144,1,103319,103323
14115,2018306,1,104110,104116
11947,2026059,1,106405,0
14061,2020652,1,104847,0
14211,2018803,1,104340,0
11768,2021300,1,105170,105172
11822,2026038,1,106384,106388
14468,2020572,1,104840,104844
12850,2019379,1,104538,0
13913,2018819,1,104356,0
12681,2026341,1,106486,0
10022,2023611,1,105809,105811
11541,2026052,1,106398,0
14382,2025179,1,106123,0
11644,2020384,1,104802,104804
14686,2023389,1,105688,105690
14099,2020680,1,104875,0
12801,2021304,1,105174,105177
11899,2025607,1,106288,106291
11551,2026045,1,106391,0
13085,2016404,1,103453,0
11708,2026052,1,106398,0
14211,2018835,1,104372,0
13096,2019647,1,104556,0
14100,2020666,1,104861,0
12773,2021333,1,105203,105206
12871,2023525,1,105723,105742
11751,2016144,1,103319,0
12681,2022644,1,105410,105413
15228,2018336,1,104140,104141
10501,2017600,1,103934,0
14062,2025189,1,106133,0
10811,2020986,1,105006,105009
15030,2023653,1,105814,0
12859,2026964,1,106623,106625
13908,2026482,1,106552,0
11029,2025607,1,106288,0
12898,2019261,1,104508,104509
15550,2018845,1,104382,0
15129,2018637,1,104250,0
15016,2023040,1,105515,0
11914,2026045,1,106391,0
15542,2025179,1,106123,106125
11901,2026341,1,106486,106487
15339,2019983,1,104683,0
12991,2023389,1,105688,0
15124,2018658,1,104271,104277
11688,2026059,1,106405,0
11565,2017594,1,103928,0
14258,2026482,1,106552,0
14451,2020652,1,104847,0
15368,2018336,1,104140,0
12756,2017754,1,103962,103963
15026,2019944,1,104644,0
15272,2018679,1,104292,0
12643,2025734,1,106340,106342
11853,2026361,1,106506,106511
15335,2023797,1,105832,0
11665,2025720,1,106326,106328
15569,2026775,1,106583,0
14201,2023561,1,105759,0
12764,2016450,1,103474,0
11946,2021196,1,105141,105143
14244,2025189,1,106133,0
15055,2018336,1,104140,104146
12024,2022604,1,105370,105383
10788,2025607,1,106288,106292
12769,2026351,1,106496,0
12890,2026371,1,106516,0
12852,2026341,1,106486,106495
11850,2018085,1,104080,0
15420,2018366,1,104170,104178
11878,2017437,1,103884,0
11590,2026371,1,106516,0
11758,2026038,1,106384,106388
15070,2023228,1,105577,105602
14001,2020652,1,104847,0
15428,2021435,1,105280,0
14099,2023389,1,105688,105690
11542,2026038,1,106384,0
12627,2026052,1,106398,0
10625,2026059,1,106405,0
15065,2018351,1,104155,104160
15228,2018961,1,104397,0
12974,2023389,1,105688,0
15156,2018679,1,104292,104312
12931,2017437,1,103884,0
15021,2023653,1,105814,105818
12667,2016442,1,103466,103469
14244,2020572,1,104840,0
11850,2017981,1,104001,0
14501,2023556,1,105754,105757
15497,2024996,1,106041,106042
15438,2018398,1,104202,0
11551,2017594,1,103928,103933
15065,2018981,1,104417,0
15195,2018961,1,104397,0
13926,2020178,1,104722,0
12028,2025720,1,106326,0
15070,2023256,1,105605,105612
15230,2018961,1,104397,0
15343,2021435,1,105280,0
13945,2025219,1,106163,0
12009,2026341,1,106486,0
12909,2022624,1,105390,0
14211,2018017,1,104037,104043
11627,2017800,1,103983,0
14487,2018951,1,104387,104394
15148,2018398,1,104202,0
11589,2017594,1,103928,103933
14061,2019983,1,104683,104710
12030,2016090,1,103290,0
11548,2018366,1,104170,0
14381,2019983,1,104683,104696
13064,2023389,1,105688,0
14381,2019379,1,104538,0
11671,2025592,1,106273,106277
15368,2018961,1,104397,104405
12698,2020796,1,104916,104917
14243,2023566,1,105764,105767
12764,2016021,1,103246,103250
12950,2023505,1,105703,0
11671,2026052,1,106398,0
9228,2026381,1,106526,106528
12985,2017759,1,103967,103968
14052,2023389,1,105688,105689
12012,2025602,1,106283,106284
13919,2023389,1,105688,0
12857,2017437,1,103884,103885
9823,2026371,1,106516,106521
15065,2018951,1,104387,0
13959,2020572,1,104840,0
15604,2026775,1,106583,0
15097,2023040,1,105515,0
12756,2018819,1,104356,0
11548,2022080,1,105299,0
14212,2016400,1,103449,0
11984,2025597,1,106278,0
15081,2018366,1,104170,104178
14546,2023500,1,105698,105701
15388,2022080,1,105299,0
14061,2023500,1,105698,105702
13989,2019379,1,104538,0
12896,2023653,1,105814,0
15521,2021435,1,105280,0
12883,2026482,1,106552,0
12698,2020799,1,104919,104921
12959,2019647,1,104556,0
12759,2026361,1,106506,106508
12909,2022604,1,105370,105374
12064,2019194,1,104479,104491
11555,2022644,1,105410,0
12965,2020572,1,104840,104844
11016,2021316,1,105186,105187
14351,2023200,1,105549,105560
15097,2023172,1,105521,105524
14468,2019838,1,104639,0
14212,2016404,1,103453,0
13908,2023566,1,105764,105767
13089,2018700,1,104313,0
11665,2022644,1,105410,0
14291,2026482,1,106552,106554
11565,2026341,1,106486,0
12928,2026482,1,106552,0
12643,2021325,1,105195,0
11555,2026341,1,106486,0
15293,2021435,1,105280,0
13005,2018398,1,104202,0
14290,2019189,1,104474,104475
13910,2023500,1,105698,0
14168,2025189,1,106133,0
13942,2016388,1,103437,0
15020,2018991,1,104427,0
10897,2025612,1,106293,0
13925,2023515,1,105713,0
14358,2019379,1,104538,0
13964,2019379,1,104538,0
13020,2018637,1,104250,104264
12769,2026361,1,106506,0
15056,2018679,1,104292,104300
10669,2026038,1,106384,0
14299,2018637,1,104250,104252
15026,2018700,1,104313,0
12815,2022644,1,105410,0
9615,2025602,1,106283,0
12064,2019207,1,104492,104496
9594,2026371,1,106516,106521
15420,2019809,1,104610,0
14493,2023301,1,105650,0
15193,2018306,1,104110,104111
11912,2021193,1,105138,105139
12681,2017594,1,103928,0
15500,2019983,1,104683,0
12746,2026351,1,106496,0
12830,2026482,1,106552,0
14064,2020652,1,104847,0
13101,2023389,1,105688,0
11877,2021308,1,105178,105179
15070,2023200,1,105549,0
13956,2025209,1,106153,0
11860,2017594,1,103928,0
11853,2026059,1,106405,0
13963,2023576,1,105774,105797
11562,2020890,1,104960,104962
15043,2019674,1,104583,0
10804,2026341,1,106486,0
14480,2016404,1,103453,0
14372,2023515,1,105713,0
12705,2026381,1,106526,0
15368,2018381,1,104185,104187
15129,2023301,1,105650,0
13931,2023389,1,105688,0
14296,2020572,1,104840,0
14487,2018971,1,104407,0
15206,2021959,1,105293,0
14495,2018398,1,104202,104204
12909,2026351,1,106496,0
15015,2019809,1,104610,0
12660,2025720,1,106326,106327
12681,2026331,1,106476,0
14244,2023495,1,105693,105695
14259,2023505,1,105703,105707
14098,2023515,1,105713,0
14152,2023389,1,105688,0
12057,2022460,1,105338,0
15420,2019001,1,104437,0
12731,2026482,1,106552,0
10804,2022644,1,105410,105415
12670,2020572,1,104840,104843
12622,2016021,1,103246,0
14381,2025179,1,106123,106125
12769,2022624,1,105390,0
11993,2021004,1,105024,105028
15405,2016246,1,103371,103380
14211,2016408,1,103457,0
15065,2018971,1,104407,104409
15030,2023040,1,105515,0
14086,2023571,1,105769,105771
15027,2018679,1,104292,104308
12622,2019258,1,104505,104506
15444,2024970,1,106015,0
13201,2020572,1,104840,0
12986,2023510,1,105708,105712
14181,2018819,1,104356,0
14496,2020178,1,104722,104755
15465,2016654,1,103528,0
13925,2023576,1,105774,105780
12057,2022463,1,105341,0
14090,2023510,1,105708,105712
14244,2023556,1,105754,0
12787,2023505,1,105703,105706
13943,2023515,1,105713,0
13942,2018819,1,104356,0
13956,2026482,1,106552,0
12670,2023576,1,105774,105802
13926,2019838,1,104639,0
12103,2025607,1,106288,0
15039,2026775,1,106583,0
12801,2021333,1,105203,105206
15575,2019983,1,104683,0
14133,2019379,1,104538,0
12759,2022624,1,105390,0
14353,2018008,1,104028,0
10670,2026381,1,106526,0
13932,2019379,1,104538,0
15217,2023797,1,105832,0
12746,2022604,1,105370,105374
15070,2023284,1,105633,105643
14338,2022080,1,105299,0
14401,2018971,1,104407,0
12012,2025597,1,106278,0
15148,2022080,1,105299,0
15628,2018845,1,104382,0
12698,2020787,1,104907,104908
13002,2021043,1,105063,105067
15405,2016266,1,103391,0
14070,2019379,1,104538,0
12057,2026331,1,106476,106481
15171,2023040,1,105515,0
14036,2020652,1,104847,0
14243,2023571,1,105769,105770
12651,2026371,1,106516,106520
12769,2022604,1,105370,0
12959,2016158,1,103333,103335
12756,2016388,1,103437,0
14370,2025169,1,106113,0
11914,2025734,1,106340,106345
14062,2025199,1,106143,0
15079,2018951,1,104387,0
13925,2020666,1,104861,0
11947,2026052,1,106398,0
14244,2023515,1,105713,0
13984,2016392,1,103441,103443
14049,2020680,1,104875,0
14098,2023495,1,105693,0
13089,2018595,1,104208,104215
14361,2020680,1,104875,104888
12027,2016144,1,103319,103323
11683,2017600,1,103934,0
15520,2021435,1,105280,0
14296,2020666,1,104861,0
15096,2018679,1,104292,0
14157,2016144,1,103319,103323
15156,2019983,1,104683,0
12889,2023505,1,105703,105706
11589,2026331,1,106476,0
12722,2021320,1,105190,105191
14211,2019379,1,104538,0
14493,2025209,1,106153,0
14359,2018827,1,104364,104371
15273,2018109,1,104104,0
15146,2023797,1,105832,0
12746,2022624,1,105390,105403
14044,2019379,1,104538,0
14358,2023520,1,105718,0
9594,2025655,1,106311,106313
11722,2025612,1,106293,106296
14097,2025209,1,106153,0
14123,2019983,1,104683,0
14503,2018951,1,104387,0
12796,2019983,1,104683,0
12064,2018819,1,104356,104363
11834,2023611,1,105809,105810
11795,2022644,1,105410,0
12898,2016016,1,103241,103244
14092,2023500,1,105698,105700
15649,2019983,1,104683,0
14480,2016400,1,103449,0
14211,2026964,1,106623,106626
12028,2025734,1,106340,0
14456,2016144,1,103319,0
15438,2022080,1,105299,0
14397,2020666,1,104861,0
15663,2026775,1,106583,0
11688,2026052,1,106398,0
12985,2016404,1,103453,0
10745,2026038,1,106384,106386
14168,2023556,1,105754,105755
14186,2020652,1,104847,0
15405,2016236,1,103361,103366
15026,2018595,1,104208,0
14128,2018845,1,104382,104384
15096,2023200,1,105549,105551
13016,2016388,1,103437,0
14201,2023510,1,105708,105711
11575,2023495,1,105693,0
15059,2018658,1,104271,104284
14493,2018637,1,104250,0
15420,2018351,1,104155,104156
10774,2023611,1,105809,105811
15130,2018321,1,104125,104134
15027,2026720,1,106577,0
11555,2026331,1,106476,0
14074,2025179,1,106123,106132
15206,2018845,1,104382,0
11752,2022644,1,105410,0
12925,2021035,1,105055,105056
11834,2020793,1,104913,104915
11758,2016066,1,103266,103270
12823,2026381,1,106526,0
15230,2019489,1,104551,0
12982,2017759,1,103967,103968
15087,2018679,1,104292,104294
13937,2023653,1,105814,0
13996,2019194,1,104479,0
14363,2019944,1,104644,0
14244,2025199,1,106143,0
11712,2017594,1,103928,0
14449,2026482,1,106552,0
12643,2025720,1,106326,106332
13948,2023515,1,105713,105714
13996,2016308,1,103433,103435
13042,2023389,1,105688,0
14001,2016151,1,103326,0
15195,2019674,1,104583,0
13960,2025179,1,106123,0
11665,2025734,1,106340,0
12748,2021308,1,105178,105181
15663,2023040,1,105515,0
10625,2026052,1,106398,0
15027,2023256,1,105605,0
14168,2025169,1,106113,0
15155,2018961,1,104397,104405
11912,2021202,1,105147,0
12950,2025089,1,106109,0
15368,2019674,1,104583,0
14036,2019983,1,104683,0
15039,2023172,1,105521,105531
14370,2023495,1,105693,105694
11912,2021199,1,105144,105146
12827,2026361,1,106506,106509
15712,2026482,1,106552,0
14259,2023510,1,105708,105710
15043,2018381,1,104185,0
15217,2024996,1,106041,0
14404,2018835,1,104372,0
15359,2018991,1,104427,0
11618,2022644,1,105410,0
13908,2025209,1,106153,0
11758,2016082,1,103282,0
12815,2025734,1,106340,0
12913,2026371,1,106516,106520
11768,2025727,1,106333,0
15027,2023228,1,105577,105604
13984,2016388,1,103437,0
13996,2019207,1,104492,104496
7363,2018109,1,104104,0
12690,2026361,1,106506,0
11723,2026371,1,106516,0
15272,2019983,1,104683,0
15081,2018351,1,104155,0
13038,2022644,1,105410,0
11671,2026059,1,106405,0
15547,2023797,1,105832,0
14100,2023556,1,105754,0
12674,2020802,1,104922,104923
13020,2018398,1,104202,0
15535,2019647,1,104556,0
12009,2026331,1,106476,106484
14121,2016400,1,103449,0
13016,2019194,1,104479,104484
15293,2024970,1,106015,106036
12801,2021312,1,105182,105185
12890,2017600,1,103934,0
15143,2018637,1,104250,0
14212,2018026,1,104046,0
14509,2016404,1,103453,0
14353,2017999,1,104019,0
12827,2026351,1,106496,0
12663,2026351,1,106496,106502
12762,2022604,1,105370,0
15025,2019489,1,104551,0
12028,2021325,1,105195,105197
13082,2025089,1,106109,0
11713,2022644,1,105410,105426
15514,2016286,1,103411,103412
15497,2019647,1,104556,0
13996,2016388,1,103437,0
15043,2016256,1,103381,103386
11027,2025587,1,106268,106272
12889,2023172,1,105521,0
12852,2026331,1,106476,0
13913,2019207,1,104492,104493
12705,2017800,1,103983,0
15097,2016296,1,103421,103430
14496,2019944,1,104644,0
15177,2019983,1,104683,0
15055,2018381,1,104185,0
15096,2023256,1,105605,105615
14370,2023515,1,105713,105715
14211,2026956,1,106615,106617
12889,2023389,1,105688,105690
12950,2023561,1,105759,105762
14487,2019809,1,104610,0
11853,2026052,1,106398,106404
12764,2016031,1,103256,0
11752,2026045,1,106391,0
14103,2018723,1,104336,0
13968,2023571,1,105769,105770
15096,2023228,1,105577,105602
14244,2025169,1,106113,0
15043,2016276,1,103401,103405
13942,2017754,1,103962,103964
14241,2018008,1,104028,0
11912,2021190,1,105135,0
15379,2019983,1,104683,0
11708,2017588,1,103922,0
15097,2016226,1,103351,0
14242,2023515,1,105713,0
13913,2019194,1,104479,0
13984,2019194,1,104479,104483
14382,2019379,1,104538,0
15065,2019809,1,104610,0
13976,2018637,1,104250,0
11850,2018008,1,104028,0
12959,2016151,1,103326,103328
14115,2018351,1,104155,0
12836,2016026,1,103251,103252
15323,2019379,1,104538,104541
11822,2025734,1,106340,106346
13014,2023500,1,105698,105699
12643,2021333,1,105203,105204
15458,2026775,1,106583,0
15585,2018398,1,104202,0
15026,2019983,1,104683,0
15130,2018381,1,104185,0
11821,2017600,1,103934,0
13916,2023505,1,105703,105704
12770,2023576,1,105774,105800
9733,2020875,1,104945,104947
12836,2016011,1,103236,103240
14200,2023561,1,105759,0
11722,2025592,1,106273,106275
14381,2020178,1,104722,0
14064,2023495,1,105693,105695
14186,2020572,1,104840,0
10745,2026045,1,106391,0
14370,2025179,1,106123,0
14089,2023576,1,105774,105789
14121,2016408,1,103457,0
14183,2016388,1,103437,0
14090,2023571,1,105769,105771
9823,2026361,1,106506,0
14113,2022080,1,105299,0
14304,2017759,1,103967,103969
12801,2021341,1,105211,105214
15429,2021435,1,105280,0
14212,2018835,1,104372,0
15043,2018991,1,104427,0
15043,2018321,1,104125,0
15156,2018595,1,104208,104224
11616,2025734,1,106340,106344
12864,2020178,1,104722,0
10946,2017372,1,103869,103871
14036,2020572,1,104840,104844
12890,2026361,1,106506,106511
14064,2023556,1,105754,0
15088,2018991,1,104427,0
14086,2023510,1,105708,105710
12030,2022624,1,105390,0
11590,2026361,1,106506,106511
13072,2025209,1,106153,0
14089,2020572,1,104840,104842
9594,2026351,1,106496,0
15027,2018700,1,104313,104331
15575,2019838,1,104639,0
14212,2018803,1,104340,0
12714,2018819,1,104356,0
11683,2026059,1,106405,0
13989,2025199,1,106143,106147
11984,2025546,1,106264,0
14121,2018811,1,104348,0
11958,2017606,1,103940,103942
15474,2019001,1,104437,0
15603,2018637,1,104250,0
12959,2019674,1,104583,0
11591,2020799,1,104919,104921
14686,2026482,1,106552,0
14100,2023520,1,105718,105721
12667,2022644,1,105410,105428
14100,2025179,1,106123,0
12896,2022080,1,105299,0
14186,2020666,1,104861,0
15164,2020178,1,104722,0
13910,2025199,1,106143,0
15129,2018658,1,104271,104278
11796,2018951,1,104387,0
14212,2017990,1,104010,104013
14397,2020652,1,104847,0
14528,2020572,1,104840,104842
14341,2025169,1,106113,0
12920,2022604,1,105370,0
15188,2026775,1,106583,0
9594,2026361,1,106506,106511
11615,2017800,1,103983,0
15190,2016286,1,103411,103419
15190,2018306,1,104110,104117
14085,2016151,1,103326,0
12771,2023611,1,105809,105811
15542,2025189,1,106133,0
14509,2018811,1,104348,0
12909,2025655,1,106311,106314
12890,2026351,1,106496,0
15124,2018637,1,104250,0
15198,2018595,1,104208,0
11590,2026351,1,106496,106498
14183,2019194,1,104479,104480
15087,2018616,1,104229,0
14312,2017754,1,103962,103964
15056,2018595,1,104208,104215
13095,2026482,1,106552,0
14309,2023561,1,105759,105762
13989,2025169,1,106113,106115
15239,2018951,1,104387,0
14196,2025199,1,106143,106147
14456,2018595,1,104208,104218
15438,2026775,1,106583,0
14290,2016392,1,103441,103442
12773,2021329,1,105199,105202
10670,2026341,1,106486,0
12905,2019944,1,104644,0
14260,2018017,1,104037,0
14378,2023040,1,105515,0
14121,2019379,1,104538,0
11824,2017372,1,103869,103871
15148,2026775,1,106583,106586
12871,2026482,1,106552,0
15055,2018321,1,104125,0
12705,2026341,1,106486,0
14228,2023556,1,105754,105757
15283,2020178,1,104722,0
15217,2024620,1,105916,0
12759,2026371,1,106516,106523
12634,2017594,1,103928,0
11562,2017506,1,103902,103903
10745,2022644,1,105410,0
12748,2021300,1,105170,105172
15602,2018595,1,104208,0
15532,2019001,1,104437,0
14080,2023561,1,105759,0
12764,2016026,1,103251,0
15541,2019809,1,104610,0
14123,2019838,1,104639,0
15562,2019944,1,104644,104678
11663,2022644,1,105410,105421
10874,2025587,1,106268,0
14103,2018835,1,104372,0
12870,2017754,1,103962,103965
15096,2018700,1,104313,104315
14121,2026964,1,106623,106625
14212,2018827,1,104364,0
12764,2016011,1,103236,0
13942,2016396,1,103445,0
13096,2018827,1,104364,104366
14065,2020666,1,104861,0
14119,2025209,1,106153,0
15220,2018845,1,104382,0
12670,2020652,1,104847,0
12028,2021304,1,105174,105175
11713,2021196,1,105141,105142
11683,2017588,1,103922,0
14480,2018811,1,104348,104354
15368,2018991,1,104427,0
15148,2023040,1,105515,0
15096,2018616,1,104229,0
15368,2018321,1,104125,104136
13910,2023515,1,105713,105715
15474,2018951,1,104387,104392
14531,2023653,1,105814,0
9615,2025612,1,106293,0
15359,2019674,1,104583,0
14260,2018835,1,104372,0
9640,2017606,1,103940,0
9823,2026059,1,106405,0
14061,2023556,1,105754,0
15070,2018595,1,104208,0
9228,2026331,1,106476,0
14064,2025199,1,106143,106151
14117,2023515,1,105713,105717
13965,2018398,1,104202,104204
15108,2018951,1,104387,0
11821,2016090,1,103290,103294
11722,2025597,1,106278,0
12642,2022644,1,105410,0
13027,2018109,1,104104,0
12864,2023495,1,105693,105697
15226,2023653,1,105814,0
13149,2019838,1,104639,0
14261,2023040,1,105515,0
15087,2018700,1,104313,104315
14193,2020666,1,104861,0
14396,2017981,1,104001,0
15193,2018981,1,104417,104418
13908,2023505,1,105703,105705
14341,2023495,1,105693,105696
12928,2023389,1,105688,0
14345,2026775,1,106583,0
14480,2016408,1,103457,0
14036,2019838,1,104639,0
11590,2026059,1,106405,0
15474,2018981,1,104417,0
11562,2020893,1,104963,104965
14061,2023495,1,105693,0
15193,2018351,1,104155,104159
14501,2019379,1,104538,0
12124,2022604,1,105370,0
14244,2025179,1,106123,0
14546,2023495,1,105693,0
10744,2025587,1,106268,0
14085,2023200,1,105549,105551
15048,2023653,1,105814,0
15188,2023040,1,105515,0
12801,2025720,1,106326,0
15283,2019944,1,104644,0
13989,2023495,1,105693,105694
14241,2018819,1,104356,0
15228,2018321,1,104125,104134
12913,2022604,1,105370,0
13916,2023510,1,105708,105710
11084,2017594,1,103928,0
13932,2020572,1,104840,104842
14228,2025169,1,106113,106121
13911,2023515,1,105713,0
11994,2026038,1,106384,0
15154,2019983,1,104683,0
14211,2016404,1,103453,0
14380,2023389,1,105688,0
15604,2021435,1,105280,0
12722,2025734,1,106340,106346
14133,2020572,1,104840,104842
11723,2022604,1,105370,105387
15272,2018595,1,104208,104209
12950,2023566,1,105764,105767
14134,2023561,1,105759,0
13945,2023561,1,105759,105760
15027,2018616,1,104229,104246
12871,2023566,1,105764,105767
15635,2023797,1,105832,0
12722,2021329,1,105199,105202
13910,2023495,1,105693,105696
14193,2023576,1,105774,105784
14085,2023256,1,105605,105608
13014,2023284,1,105633,0
11663,2025720,1,106326,106329
13911,2023556,1,105754,105755
11667,2022624,1,105390,0
14358,2023495,1,105693,105695
14001,2016158,1,103333,0
11957,2019809,1,104610,0
15141,2018961,1,104397,0
11947,2025727,1,106333,0
14290,2019207,1,104492,104495
15065,2018306,1,104110,104111
15065,2016286,1,103411,103413
14228,2025199,1,106143,0
14247,2025209,1,106153,0
15026,2023284,1,105633,0
13908,2020680,1,104875,0
12762,2025647,1,106303,0
12985,2016408,1,103457,0
5184,2020572,1,104840,104844
15097,2023301,1,105650,105675
14085,2023228,1,105577,105593
12982,2018827,1,104364,0
14086,2020680,1,104875,0
15219,2026720,1,106577,0
15177,2019838,1,104639,0
15458,2023040,1,105515,0
14341,2023515,1,105713,105715
14180,2018827,1,104364,0
12974,2026482,1,106552,0
15532,2018351,1,104155,104160
14025,2023500,1,105698,105702
14464,2019647,1,104556,0
14121,2026956,1,106615,106616
14061,2023515,1,105713,105717
13002,2020975,1,104995,0
14098,2023520,1,105718,0
14098,2025179,1,106123,0
11562,2020884,1,104954,104955
14546,2023515,1,105713,105715
15465,2023797,1,105832,0
14117,2023556,1,105754,0
15532,2018981,1,104417,0
12823,2026341,1,106486,0
14212,2018017,1,104037,0
12622,2020835,1,104930,104933
14493,2023172,1,105521,0
15217,2016654,1,103528,0
15128,2018961,1,104397,0
14372,2023520,1,105718,105719
14337,2018398,1,104202,104204
14193,2020572,1,104840,0
14064,2025169,1,106113,0
15379,2019838,1,104639,0
12124,2022624,1,105390,0
14290,2019194,1,104479,104487
15020,2018961,1,104397,0
12823,2022644,1,105410,0
15220,2021959,1,105293,0
12712,2021004,1,105024,105031
12898,2019267,1,104514,104515
15417,2022080,1,105299,0
12028,2021333,1,105203,105205
14244,2023500,1,105698,0
15649,2019944,1,104644,0
11874,2022604,1,105370,105374
15602,2018616,1,104229,0
9944,2017600,1,103934,0
14358,2020666,1,104861,0
14115,2018366,1,104170,0
12796,2019944,1,104644,0
11901,2026381,1,106526,106533
15065,2016226,1,103351,103352
15562,2019838,1,104639,0
11718,2026038,1,106384,0
14196,2020666,1,104861,0
15359,2021959,1,105293,0
10804,2016066,1,103266,0
12712,2020997,1,105017,0
13014,2023200,1,105549,0
15272,2020178,1,104722,0
11722,2026059,1,106405,0
15129,2023172,1,105521,105540
12959,2020652,1,104847,0
14036,2020178,1,104722,0
15065,2016296,1,103421,103425
14309,2023505,1,105703,105707
15114,2023653,1,105814,0
11723,2026361,1,106506,0
15312,2018398,1,104202,0
15026,2023200,1,105549,0
13984,2016396,1,103445,0
14501,2025179,1,106123,0
14501,2023520,1,105718,105720
12076,2020802,1,104922,104923
12937,2020572,1,104840,0
13925,2025179,1,106123,0
13925,2023520,1,105718,105720
10897,2025597,1,106278,0
15368,2019647,1,104556,0
13911,2020666,1,104861,0
15198,2018616,1,104229,104232
15508,2019001,1,104437,0
14286,2026968,1,106627,0
11615,2016450,1,103474,0
12759,2017600,1,103934,0
11667,2026361,1,106506,0
11683,2026052,1,106398,0
15474,2018971,1,104407,104409
14495,2023525,1,105723,0
11663,2025734,1,106340,106342
14052,2022080,1,105299,0
11946,2022644,1,105410,105423
14381,2020572,1,104840,0
12681,2026381,1,106526,0
12009,2017800,1,103983,0
14186,2020178,1,104722,0
14440,2019379,1,104538,0
11822,2026045,1,106391,0
14312,2016308,1,103433,0
13943,2016144,1,103319,0
10977,2021304,1,105174,105175
14006,2020680,1,104875,0
13002,2021027,1,105047,0
13989,2020572,1,104840,0
14435,2023653,1,105814,105817
14509,2018803,1,104340,0
11874,2026052,1,106398,106399
15542,2025169,1,106113,106121
13959,2019379,1,104538,0
14134,2023510,1,105708,105711
15108,2018971,1,104407,104415
15541,2018951,1,104387,0
12801,2021329,1,105199,105202
15573,2022080,1,105299,0
15087,2018595,1,104208,0
15128,2018109,1,104104,0
11758,2016098,1,103298,103302
15535,2019674,1,104583,0
14098,2023500,1,105698,105699
11667,2026351,1,106496,0
14372,2019379,1,104538,0
12765,2021308,1,105178,105181
15405,2016276,1,103401,103406
15575,2019944,1,104644,0
11615,2016442,1,103466,0
11902,2022644,1,105410,0
14290,2018819,1,104356,0
14239,2019379,1,104538,0
15156,2018616,1,104229,104248
14212,2018811,1,104348,0
15542,2023797,1,105832,0
14521,2020572,1,104840,104842
10601,2017446,1,103893,0
12867,2023500,1,105698,105699
12729,2026952,1,106611,106612
11793,2026038,1,106384,0
12764,2020835,1,104930,104933
14201,2023566,1,105764,0
15177,2020178,1,104722,104723
11958,2017600,1,103934,0
11902,2026341,1,106486,0
15618,2023797,1,105832,0
12762,2025655,1,106311,106312
15587,2019379,1,104538,104541
15542,2025199,1,106143,0
12653,2017440,1,103887,103889
14372,2023500,1,105698,0
15323,2026720,1,106577,106579
12980,2019379,1,104538,0
15272,2018700,1,104313,104315
11874,2022624,1,105390,105392
15070,2020178,1,104722,0
13037,2026482,1,106552,0
11793,2025607,1,106288,0
12731,2023389,1,105688,105690
13201,2019674,1,104583,0
15026,2023228,1,105577,105601
14092,2023495,1,105693,105695
14212,2016408,1,103457,0
13014,2023256,1,105605,105615
15467,2024970,1,106015,106018
15130,2018336,1,104140,0
15532,2018971,1,104407,0
14085,2023284,1,105633,0
15405,2016256,1,103381,103383
14358,2023576,1,105774,105800
14312,2016388,1,103437,103438
11723,2026351,1,106496,0
15026,2023256,1,105605,0
11616,2022644,1,105410,0
15395,2020178,1,104722,0
14509,2018827,1,104364,104367
14521,2023576,1,105774,105798
11625,2020680,1,104875,0
13996,2016396,1,103445,0
13038,2016450,1,103474,0
12643,2021304,1,105174,105175
11799,2020975,1,104995,0
14259,2023566,1,105764,105765
14381,2020666,1,104861,0
14061,2020666,1,104861,0
12057,2026381,1,106526,0
13014,2023228,1,105577,105594
15515,2023797,1,105832,0
15153,2026720,1,106577,106580
14546,2020666,1,104861,0
15359,2018845,1,104382,104385
14184,2026482,1,106552,0
12651,2026351,1,106496,0
10501,2017588,1,103922,0
14064,2025189,1,106133,106137
10807,2026045,1,106391,0
14308,2026482,1,106552,0
14228,2020666,1,104861,0
15043,2019647,1,104556,0
12947,2023389,1,105688,0
11918,2025587,1,106268,106271
14080,2023510,1,105708,105712
11098,2017440,1,103887,103888
10669,2026045,1,106391,0
13060,2019944,1,104644,0
14314,2023525,1,105723,0
15374,2026775,1,106583,0
15541,2019001,1,104437,0
15190,2016296,1,103421,103425
12770,2023556,1,105754,105756
12934,2026052,1,106398,0
9823,2025592,1,106273,106275
15535,2018109,1,104104,0
14074,2023576,1,105774,105788
15384,2021435,1,105280,0
15444,2016226,1,103351,103357
11758,2022644,1,105410,0
11575,2023500,1,105698,0
12850,2020666,1,104861,0
15177,2019944,1,104644,0
14496,2019983,1,104683,0
15217,2027160,1,106665,106666
15190,2016226,1,103351,103352
15070,2019944,1,104644,0
12769,2016090,1,103290,0
12664,2026341,1,106486,106487
13089,2025179,1,106123,0
12872,2026482,1,106552,0
15514,2021435,1,105280,0
14381,2019838,1,104639,0
11768,2021345,1,105215,105216
12959,2016144,1,103319,103323
12834,2022644,1,105410,105419
11824,2017366,1,103863,103865
15130,2018961,1,104397,0
15154,2023200,1,105549,105563
15136,2018961,1,104397,0
15130,2018845,1,104382,0
10811,2020964,1,104984,0
15272,2018616,1,104229,104233
12940,2026482,1,106552,0
11565,2026381,1,106526,106530
14212,2018080,1,104075,0
12643,2021320,1,105190,105193
15027,2018595,1,104208,104215
15421,2022080,1,105299,0
11555,2026381,1,106526,0
14099,2023571,1,105769,105770
12823,2026331,1,106476,106480
11850,2018095,1,104090,0
11768,2021308,1,105178,0
14165,2016308,1,103433,103435
14074,2020572,1,104840,104843
14001,2020666,1,104861,0
15156,2018700,1,104313,104331
13119,2018109,1,104104,0
12030,2026351,1,106496,0
14370,2023500,1,105698,105700
12934,2022604,1,105370,0
15508,2018981,1,104417,0
14211,2018026,1,104046,0
14314,2023389,1,105688,105690
14062,2019379,1,104538,104541
15532,2024970,1,106015,106019
15420,2018306,1,104110,104123
12622,2016011,1,103236,0
11798,2022624,1,105390,0
14456,2018700,1,104313,104324
15497,2016654,1,103528,0
14123,2020178,1,104722,0
10969,2021300,1,105170,105173
14493,2023653,1,105814,105817
12909,2026371,1,106516,106523
12712,2020964,1,104984,0
12889,2023301,1,105650,0
9228,2026341,1,106486,0
12773,2025720,1,106326,106332
14531,2023040,1,105515,0
12896,2026482,1,106552,0
12622,2016026,1,103251,0
15272,2019944,1,104644,0
15118,2023797,1,105832,0
15056,2018700,1,104313,104324
15043,2016236,1,103361,103370
11616,2025720,1,106326,106331
11901,2017800,1,103983,0
14086,2023561,1,105759,105760
14036,2019944,1,104644,104681
14024,2019379,1,104538,0
15186,2018981,1,104417,0
15226,2023040,1,105515,0
13913,2019189,1,104474,0
14260,2016408,1,103457,0
11918,2025607,1,106288,0
12982,2018811,1,104348,0
15390,2021435,1,105280,0
11548,2018306,1,104110,0
14183,2018819,1,104356,104362
12756,2016396,1,103445,0
14074,2020666,1,104861,0
14261,2023653,1,105814,0
11542,2026045,1,106391,0
12934,2022624,1,105390,105409
15154,2026720,1,106577,106579
12852,2026381,1,106526,0
12801,2021325,1,105195,0
15096,2018595,1,104208,104209
14186,2019944,1,104644,0
11796,2018971,1,104407,0
15271,2019838,1,104639,0
13016,2019189,1,104474,0
15188,2023653,1,105814,0
14480,2018835,1,104372,0
14309,2023525,1,105723,105727
11570,2021004,1,105024,0
12787,2026482,1,106552,0
13945,2020680,1,104875,0
15039,2018398,1,104202,0
13085,2016408,1,103457,0
15602,2018700,1,104313,0
14260,2018811,1,104348,0
15438,2023653,1,105814,0
15146,2019379,1,104538,0
9615,2025546,1,106264,0
12028,2021312,1,105182,105184
15081,2018306,1,104110,104120
11562,2020899,1,104969,104971
14404,2019184,1,104469,104473
11625,2023525,1,105723,105727
15070,2018616,1,104229,104247
12064,2018827,1,104364,0
11850,2017990,1,104010,0
11834,2020787,1,104907,104909
11667,2022644,1,105410,105427
12856,2023495,1,105693,105694
13037,2020572,1,104840,0
11902,2026351,1,106496,106501
14359,2017764,1,103972,103976
14181,2018835,1,104372,104373
13913,2018811,1,104348,0
13014,2023505,1,105703,105704
11994,2017606,1,103940,0
12634,2022624,1,105390,0
13942,2018835,1,104372,0
12622,2016016,1,103241,103242
14098,2023561,1,105759,105760
13085,2019189,1,104474,104478
15405,2016286,1,103411,103413
11667,2026341,1,106486,106490
14372,2023561,1,105759,105760
14359,2018819,1,104356,0
14278,2023653,1,105814,0
14241,2018723,1,104336,0
15427,2019838,1,104639,0
15027,2018398,1,104202,0
13016,2016408,1,103457,0
14025,2023525,1,105723,105731
11565,2017600,1,103934,0
13942,2018803,1,104340,0
14383,2019379,1,104538,0
14213,2019184,1,104469,104470
14085,2023653,1,105814,0
12652,2025720,1,106326,106329
12643,2025727,1,106333,106338
13984,2016408,1,103457,103460
11723,2026341,1,106486,106489
11946,2021190,1,105135,105137
12124,2022644,1,105410,0
15055,2019001,1,104437,104441
11853,2026381,1,106526,0
10788,2025602,1,106283,106285
10095,2017363,1,103860,103861
10501,2017594,1,103928,0
12913,2026341,1,106486,0
14436,2020652,1,104847,0
12057,2022454,1,105332,0
15154,2023172,1,105521,0
15604,2023797,1,105832,0
12889,2018595,1,104208,0
11542,2026059,1,106405,0
13931,2025189,1,106133,0
10625,2026038,1,106384,0
10788,2026059,1,106405,0
14290,2019184,1,104469,104470
13016,2018811,1,104348,0
14211,2026952,1,106611,106613
12998,2019674,1,104583,0
15623,2026775,1,106583,0
11544,2020380,1,104798,104800
15439,2023797,1,105832,0
15663,2019647,1,104556,104574
14116,2020680,1,104875,104877
14243,2020652,1,104847,0
13996,2019379,1,104538,0
15602,2022080,1,105299,0
12698,2020790,1,104910,104911
12670,2023389,1,105688,105690
13925,2023510,1,105708,105710
12667,2021181,1,105126,105128
11758,2026059,1,106405,0
15031,2019838,1,104639,0
15190,2018336,1,104140,0
15532,2018321,1,104125,0
15532,2018991,1,104427,104428
12980,2025089,1,106109,0
9615,2025607,1,106288,0
14401,2018845,1,104382,0
12064,2018803,1,104340,104347
11590,2026331,1,106476,106483
11713,2022563,1,105366,105367
12890,2026331,1,106476,0
14244,2023561,1,105759,105760
12009,2017600,1,103934,0
11562,2020902,1,104972,104973
15188,2019983,1,104683,0
10669,2025602,1,106283,0
15039,2018595,1,104208,104219
12642,2022624,1,105390,0
13996,2016408,1,103457,0
11878,2017446,1,103893,0
15110,2023653,1,105814,0
15129,2018679,1,104292,104310
15047,2026775,1,106583,0
15368,2018981,1,104417,0
10807,2026059,1,106405,0
13908,2020652,1,104847,0
12064,2018835,1,104372,0
12634,2022604,1,105370,105385
15438,2019983,1,104683,0
15272,2018637,1,104250,0
15027,2023301,1,105650,0
13147,2019379,1,104538,0
14173,2019379,1,104538,0
12012,2025587,1,106268,0
11666,2017446,1,103893,0
15532,2024944,1,105989,0
15154,2023040,1,105515,0
10669,2026059,1,106405,0
15368,2018351,1,104155,0
13942,2018827,1,104364,0
12773,2021345,1,105215,105218
15148,2019983,1,104683,0
15541,2019647,1,104556,0
11918,2025546,1,106264,0
11902,2026361,1,106506,0
14061,2018398,1,104202,0
14086,2020652,1,104847,0
15228,2018981,1,104417,0
12898,2019258,1,104505,104506
11745,2025546,1,106264,0
15065,2018961,1,104397,0
15228,2018351,1,104155,0
15104,2019944,1,104644,0
13101,2023556,1,105754,105757
15108,2018991,1,104427,0
15043,2019001,1,104437,0
13996,2018811,1,104348,104352
15193,2018321,1,104125,104134
9823,2026331,1,106476,106479
12823,2022604,1,105370,0
15497,2024882,1,105927,0
11946,2021202,1,105147,0
15273,2018951,1,104387,0
5184,2022080,1,105299,0
15465,2021435,1,105280,0
14193,2025209,1,106153,0
15290,2021959,1,105293,0
14487,2018961,1,104397,0
12937,2026482,1,106552,0
15368,2018951,1,104387,0
15420,2019674,1,104583,0
11946,2021199,1,105144,105146
14495,2023520,1,105718,105722
15365,2019944,1,104644,0
11615,2016446,1,103470,0
14337,2020178,1,104722,104725
14036,2022080,1,105299,0
14290,2016404,1,103453,0
13014,2023172,1,105521,0
12752,2026341,1,106486,0
13077,2020666,1,104861,0
14211,2016388,1,103437,0
11548,2018109,1,104104,0
12652,2021341,1,105211,105212
15055,2018951,1,104387,0
15026,2023172,1,105521,105526
15514,2016266,1,103391,0
14183,2019184,1,104469,104473
14097,2020652,1,104847,0
15129,2023200,1,105549,105552
12660,2025727,1,106333,106337
13976,2018595,1,104208,104223
14086,2023500,1,105698,105700
11850,2019674,1,104583,0
12681,2017600,1,103934,0
13136,2018803,1,104340,0
10804,2026371,1,106516,106520
12103,2025592,1,106273,106274
15641,2023653,1,105814,0
14006,2016151,1,103326,0
15603,2018595,1,104208,0
14117,2023566,1,105764,105767
15065,2018336,1,104140,0
12899,2016308,1,103433,0
14358,2023566,1,105764,0
15059,2018700,1,104313,104314
13072,2020572,1,104840,0
14089,2025209,1,106153,106162
15514,2016236,1,103361,103366
14503,2019674,1,104583,0
15339,2018398,1,104202,0
14211,2017981,1,104001,0
12664,2026361,1,106506,0
14165,2018723,1,104336,0
11850,2018017,1,104037,104044
13002,2020986,1,105006,0
12832,2019674,1,104583,104608
12667,2022604,1,105370,105386
15055,2018351,1,104155,0
15346,2021435,1,105280,105289
14493,2023284,1,105633,0
12769,2026381,1,106526,0
14309,2023520,1,105718,0
14353,2018026,1,104046,0
15055,2018981,1,104417,0
11796,2018991,1,104427,0
15156,2018637,1,104250,0
13149,2022080,1,105299,0
14456,2018637,1,104250,0
15177,2022080,1,105299,0
11957,2019647,1,104556,0
14396,2016400,1,103449,0
11722,2026045,1,106391,0
14401,2021959,1,105293,105295
14397,2020680,1,104875,0
12746,2026381,1,106526,0
13926,2023525,1,105723,105749
11931,2016158,1,103333,0
14299,2018679,1,104292,0
15467,2020178,1,104722,0
13085,2016396,1,103445,0
14119,2023576,1,105774,105780
11570,2021043,1,105063,105069
15368,2019001,1,104437,0
15056,2018637,1,104250,104264
12920,2022644,1,105410,0
12923,2022604,1,105370,105372
12664,2026351,1,106496,0
15514,2016246,1,103371,0
12698,2020793,1,104913,104914
12722,2021308,1,105178,105181
15542,2025209,1,106153,0
14353,2018723,1,104336,0
13081,2026952,1,106611,106612
12651,2026341,1,106486,106491
15420,2018381,1,104185,0
11891,2016450,1,103474,103476
14243,2019379,1,104538,0
13100,2018803,1,104340,0
14086,2016144,1,103319,103323
11794,2026038,1,106384,106385
15542,2025219,1,106163,106170
14184,2020572,1,104840,104843
14115,2018321,1,104125,104135
14061,2023566,1,105764,0
15113,2020178,1,104722,0
12841,2026482,1,106552,0
14260,2016396,1,103445,0
13965,2020178,1,104722,0
14184,2023576,1,105774,105793
10745,2022604,1,105370,0
14282,2018595,1,104208,104219
14304,2017754,1,103962,103965
15129,2023228,1,105577,105601
12028,2021300,1,105170,105172
12905,2018398,1,104202,104204
14025,2023505,1,105703,105706
12030,2026341,1,106486,0
14074,2026482,1,106552,0
10874,2025612,1,106293,0
12667,2022624,1,105390,0
11821,2016074,1,103274,103275
15081,2018381,1,104185,0
15043,2018981,1,104417,0
13925,2020680,1,104875,0
14260,2018008,1,104028,0
14370,2023561,1,105759,105762
15129,2023256,1,105605,105620
14119,2020572,1,104840,0
11548,2018381,1,104185,104194
12950,2023515,1,105713,0
14351,2022080,1,105299,0
15467,2024944,1,105989,106008
15195,2019001,1,104437,104439
15602,2018637,1,104250,0
12030,2022644,1,105410,0
14290,2016400,1,103449,0
15043,2018351,1,104155,104160
11822,2026059,1,106405,0
11807,2017363,1,103860,103861
9228,2026361,1,106506,106510
11947,2026038,1,106384,0
13960,2026482,1,106552,0
12757,2026482,1,106552,0
14383,2020652,1,104847,0
13020,2019379,1,104538,0
15190,2016276,1,103401,103408
11618,2021187,1,105132,105133
11613,2017518,1,103914,0
15641,2026775,1,106583,0
12923,2026351,1,106496,106502
15452,2026775,1,106583,0
12009,2026371,1,106516,106520
13908,2025179,1,106123,0
11671,2026038,1,106384,0
15061,2023653,1,105814,0
14493,2023228,1,105577,0
13996,2018835,1,104372,0
14370,2023510,1,105708,105711
15186,2018991,1,104427,104430
12871,2023576,1,105774,105795
11671,2025607,1,106288,106291
15444,2016276,1,103401,0
15230,2019809,1,104610,0
14259,2023495,1,105693,105697
15595,2023797,1,105832,0
12864,2023571,1,105769,105772
14242,2023389,1,105688,0
14092,2023566,1,105764,105767
15293,2024620,1,105916,0
13203,2018595,1,104208,104223
14493,2023256,1,105605,105616
11918,2025612,1,106293,106295
12622,2019273,1,104520,0
14064,2025219,1,106163,106166
12983,2017999,1,104019,0
14351,2018398,1,104202,0
11798,2022644,1,105410,105425
12622,2019261,1,104508,104509
15130,2018306,1,104110,104111
12859,2026952,1,106611,106612
12852,2026371,1,106516,106521
11084,2017588,1,103922,0
15097,2019647,1,104556,0
14309,2023500,1,105698,0
14404,2019207,1,104492,104494
11590,2026341,1,106486,0
11542,2026052,1,106398,0
14201,2023495,1,105693,105697
15444,2016256,1,103381,103385
10788,2026052,1,106398,0
15177,2018398,1,104202,0
15547,2026775,1,106583,0
12726,2026482,1,106552,0
13989,2023571,1,105769,0
12009,2017606,1,103940,0
14239,2020680,1,104875,0
14085,2023172,1,105521,0
12801,2021308,1,105178,105181
15190,2016256,1,103381,103389
13060,2026482,1,106552,0
12898,2016031,1,103256,0
12827,2017800,1,103983,0
14382,2026482,1,106552,0
11758,2026052,1,106398,0
14531,2019379,1,104538,0
13960,2025209,1,106153,0
14495,2020652,1,104847,0
14121,2018008,1,104028,0
14086,2023520,1,105718,105720
13937,2019838,1,104639,0
15097,2016246,1,103371,103372
15379,2018398,1,104202,0
12934,2022644,1,105410,105413
14307,2023495,1,105693,105694
15027,2018637,1,104250,0
12801,2021345,1,105215,105218
15055,2018971,1,104407,0
14098,2020680,1,104875,0
12705,2026351,1,106496,0
14404,2019194,1,104479,104486
11946,2021193,1,105138,105139
15059,2018595,1,104208,0
15403,2021435,1,105280,0
12909,2026381,1,106526,0
14074,2025209,1,106153,0
15226,2019983,1,104683,0
14004,2023495,1,105693,105695
12889,2019944,1,104644,0
15603,2018700,1,104313,0
12867,2023505,1,105703,105704
10115,2020787,1,104907,104909
10669,2025592,1,106273,106275
15039,2019944,1,104644,0
10744,2025546,1,106264,0
10807,2026052,1,106398,0
12850,2025219,1,106163,0
14358,2023571,1,105769,105771
15217,2024882,1,105927,0
12762,2016066,1,103266,0
12131,2019207,1,104492,104494
11555,2026371,1,106516,0
15390,2023797,1,105832,0
15030,2020178,1,104722,0
15124,2018700,1,104313,0
12934,2026045,1,106391,0
13016,2018803,1,104340,0
15223,2019674,1,104583,0
13910,2023571,1,105769,0
14509,2016396,1,103445,103446
15129,2023284,1,105633,105636
15503,2022080,1,105299,0
15221,2026720,1,106577,0
11912,2021196,1,105141,105143
11565,2026371,1,106516,0
15097,2016236,1,103361,103364
15190,2018381,1,104185,0
11671,2025587,1,106268,106272
14449,2023500,1,105698,105700
14317,2025209,1,106153,106161
14480,2019189,1,104474,0
13016,2018835,1,104372,0
12889,2018616,1,104229,0
13044,2023389,1,105688,0
13149,2018398,1,104202,0
10702,2020666,1,104861,104868
12705,2026361,1,106506,0
13911,2023571,1,105769,105771
13942,2018811,1,104348,0
14201,2023515,1,105713,0
12131,2019194,1,104479,104488
15070,2023301,1,105650,0
14100,2023525,1,105723,105735
11713,2021187,1,105132,0
14036,2018398,1,104202,104204
13984,2018835,1,104372,0
14468,2023389,1,105688,0
11575,2023040,1,105515,0
15065,2019674,1,104583,0
15097,2016266,1,103391,103393
9228,2025592,1,106273,0
15096,2018637,1,104250,0
12913,2026331,1,106476,0
14496,2023040,1,105515,0
14211,2018819,1,104356,104363
14493,2023200,1,105549,0
11562,2020878,1,104948,104950
12762,2016082,1,103282,0
11899,2025597,1,106278,0
11768,2021325,1,105195,105196
13913,2018803,1,104340,104342
10983,2023611,1,105809,105811
14063,2025179,1,106123,106132
14401,2018109,1,104104,0
12856,2020572,1,104840,0
15129,2019983,1,104683,0
13012,2019674,1,104583,0
14052,2020572,1,104840,0
12057,2026371,1,106516,106522
13062,2026482,1,106552,0
13945,2023500,1,105698,105702
14090,2023495,1,105693,105696
15030,2019944,1,104644,0
15081,2018336,1,104140,104145
12651,2026331,1,106476,0
11874,2022644,1,105410,0
15293,2016654,1,103528,0
12756,2018835,1,104372,104376
12959,2020680,1,104875,104887
15019,2019983,1,104683,0
10969,2021316,1,105186,105187
12103,2025602,1,106283,0
11548,2018336,1,104140,104150
9293,2023611,1,105809,105811
13931,2023556,1,105754,0
15532,2019647,1,104556,0
11575,2023505,1,105703,105706
14455,2023040,1,105515,0
15015,2019674,1,104583,0
15577,2022080,1,105299,0
13968,2016151,1,103326,0
11589,2026371,1,106516,0
15065,2016276,1,103401,103405
15312,2019944,1,104644,0
11616,2022624,1,105390,0
11946,2022604,1,105370,105385
14242,2023505,1,105703,105707
10977,2021300,1,105170,105173
14359,2016308,1,103433,0
15603,2019944,1,104644,0
14451,2022080,1,105299,0
14493,2018679,1,104292,104312
14006,2020652,1,104847,0
14244,2023510,1,105708,105710
10757,2018723,1,104336,104337
10788,2025597,1,106278,0
14453,2022080,1,105299,0
14370,2023505,1,105703,0
15065,2016256,1,103381,103382
12890,2017594,1,103928,103933
12713,2026482,1,106552,0
15124,2018616,1,104229,0
11824,2017363,1,103860,103862
12974,2020572,1,104840,104843
15026,2018658,1,104271,104275
11795,2021187,1,105132,0
13971,2023389,1,105688,105690
14370,2020680,1,104875,0
15541,2018991,1,104427,0
12021,2019647,1,104556,0
10745,2026059,1,106405,0
14121,2017999,1,104019,0
15405,2016296,1,103421,103425
13055,2018835,1,104372,0
15108,2019647,1,104556,0
13943,2023510,1,105708,105709
15016,2019647,1,104556,0
15603,2018616,1,104229,0
12645,2023389,1,105688,0
12681,2026371,1,106516,106520
11067,2017800,1,103983,0
11768,2025734,1,106340,0
15542,2021435,1,105280,105288
12642,2026351,1,106496,0
12823,2026361,1,106506,106510
11760,2016031,1,103256,103259
11984,2025587,1,106268,0
15055,2019809,1,104610,0
12729,2016404,1,103453,0
15405,2016226,1,103351,103356
13931,2019944,1,104644,0
10095,2017375,1,103872,103873
11683,2026045,1,106391,0
12985,2016396,1,103445,0
11541,2026038,1,106384,0
11860,2017606,1,103940,0
15452,2023040,1,105515,0
12823,2017588,1,103922,0
15641,2023040,1,105515,0
14168,2023510,1,105708,105711
15515,2021435,1,105280,0
13089,2018658,1,104271,104281
13963,2023389,1,105688,0
14282,2019944,1,104644,0
11912,2026038,1,106384,0
11822,2026052,1,106398,106404
11713,2021184,1,105129,0
11850,2018080,1,104075,0
13911,2025219,1,106163,106171
9615,2016442,1,103466,0
14098,2023510,1,105708,105710
12681,2017606,1,103940,0
11625,2020652,1,104847,104853
13976,2018616,1,104229,0
12867,2023389,1,105688,0
9228,2025597,1,106278,106281
14212,2018095,1,104090,0
13911,2025209,1,106153,0
14481,2022080,1,105299,0
14098,2023389,1,105688,105690
11946,2022624,1,105390,105409
12714,2016404,1,103453,103454
13956,2019379,1,104538,0
14501,2023561,1,105759,0
11708,2026038,1,106384,0
12827,2026381,1,106526,0
12983,2016396,1,103445,0
15444,2019674,1,104583,0
11616,2022604,1,105370,0
14509,2018819,1,104356,0
11084,2025655,1,106311,106313
15096,2023172,1,105521,0
11768,2021320,1,105190,105191
14381,2023389,1,105688,105690
14001,2020680,1,104875,0
14061,2023510,1,105708,0
15141,2018951,1,104387,0
14052,2019379,1,104538,0
13085,2019207,1,104492,104496
13945,2025189,1,106133,106138
14546,2023510,1,105708,105711
13970,2026482,1,106552,0
11565,2022624,1,105390,105405
11555,2022624,1,105390,0
12729,2026964,1,106623,106624
13919,2019379,1,104538,0
11575,2023571,1,105769,105770
14509,2017764,1,103972,103973
13096,2016392,1,103441,0
15148,2019944,1,104644,0
14244,2025219,1,106163,0
15272,2023653,1,105814,0
11590,2026038,1,106384,0
10811,2020975,1,104995,0
15368,2018306,1,104110,104124
15532,2018961,1,104397,0
11098,2017437,1,103884,0
14244,2025209,1,106153,0
11667,2016066,1,103266,0
9594,2026381,1,106526,0
12664,2022563,1,105366,105367
12634,2017600,1,103934,0
14353,2016408,1,103457,103458
9823,2025607,1,106288,0
15141,2018981,1,104417,0
12030,2016106,1,103306,0
12934,2026038,1,106384,0
10669,2025612,1,106293,106297
12705,2016090,1,103290,0
12765,2021304,1,105174,105176
12620,2021304,1,105174,105177
10591,2017443,1,103890,103891
12982,2016308,1,103433,103435
15128,2018951,1,104387,104392
15521,2023797,1,105832,0
11931,2016144,1,103319,103323
13976,2018679,1,104292,0
12889,2023228,1,105577,0
14193,2023561,1,105759,0
14383,2023556,1,105754,105758
11850,2018090,1,104085,0
12652,2021337,1,105207,0
9823,2026038,1,106384,0
15438,2019944,1,104644,0
13085,2019194,1,104479,104491
14099,2019379,1,104538,0
14211,2018008,1,104028,104035
15027,2023040,1,105515,0
10804,2026361,1,106506,0
12832,2019647,1,104556,0
12627,2022644,1,105410,0
14099,2023500,1,105698,105701
12815,2022624,1,105390,0
14115,2018336,1,104140,104148
14086,2016158,1,103333,103336
12864,2023510,1,105708,105711
15143,2018616,1,104229,0
15040,2016286,1,103411,103413
15444,2024996,1,106041,106092
15188,2019944,1,104644,0
14353,2018811,1,104348,104352
13959,2025209,1,106153,106162
12889,2023256,1,105605,0
12669,2021341,1,105211,105213
15177,2023653,1,105814,0
14168,2025219,1,106163,106169
14381,2023040,1,105515,0
15027,2023172,1,105521,105536
7308,2025546,1,106264,0
13105,2020975,1,104995,104999
11760,2016026,1,103251,103253
15293,2023797,1,105832,0
10897,2025587,1,106268,0
11796,2026964,1,106623,106625
11665,2022604,1,105370,0
12965,2025209,1,106153,0
11616,2025727,1,106333,106334
15065,2018321,1,104125,0
14168,2025209,1,106153,0
15545,2023797,1,105832,105839
15065,2018991,1,104427,0
15070,2023653,1,105814,0
13960,2020680,1,104875,0
11591,2020793,1,104913,104915
12909,2022644,1,105410,0
13129,2019944,1,104644,0
15108,2018961,1,104397,0
11760,2016011,1,103236,103238
10788,2025612,1,106293,106295
12698,2020802,1,104922,104924
12731,2020572,1,104840,0
11555,2022604,1,105370,0
11565,2022604,1,105370,105382
9228,2026371,1,106516,0
11796,2019379,1,104538,104541
15544,2018398,1,104202,0
13916,2023515,1,105713,105714
13965,2019983,1,104683,0
10804,2026351,1,106496,0
15474,2018961,1,104397,0
12889,2023200,1,105549,0
11084,2016090,1,103290,0
15474,2018845,1,104382,0
12729,2018811,1,104348,0
12815,2026052,1,106398,0
14098,2025209,1,106153,0
15489,2019809,1,104610,0
14455,2022080,1,105299,0
13100,2016400,1,103449,0
12909,2026341,1,106486,106491
13014,2023566,1,105764,0
15514,2024620,1,105916,0
11821,2016098,1,103298,0
12622,2019276,1,104523,0
15124,2018679,1,104292,104301
13968,2023495,1,105693,105694
13085,2016388,1,103437,0
14353,2019379,1,104538,0
13910,2023510,1,105708,105709
11687,2017446,1,103893,0
12982,2016388,1,103437,0
13963,2022080,1,105299,0
11626,2021035,1,105055,105059
12985,2017754,1,103962,103966
14358,2023510,1,105708,105710
12712,2020975,1,104995,105000
14493,2018616,1,104229,104249
14290,2018803,1,104340,0
9823,2025587,1,106268,0
15541,2026720,1,106577,106580
11745,2026052,1,106398,0
11918,2025592,1,106273,106277
14117,2023510,1,105708,105712
14351,2023653,1,105814,105818
11644,2016446,1,103470,0
12906,2021337,1,105207,105208
13020,2018595,1,104208,104218
14299,2018595,1,104208,0
14064,2020680,1,104875,0
13964,2023389,1,105688,105690
15272,2018658,1,104271,0
12890,2026381,1,106526,106534
15097,2023284,1,105633,105636
14493,2018700,1,104313,0
14001,2023525,1,105723,0
13085,2016392,1,103441,0
14131,2026482,1,106552,0
12690,2026341,1,106486,0
15497,2018951,1,104387,104388
13977,2025189,1,106133,106140
11850,2018065,1,104060,0
14244,2023571,1,105769,105771
11683,2026038,1,106384,0
15026,2023301,1,105650,0
12103,2025546,1,106264,0
12681,2022624,1,105390,105407
14006,2020666,1,104861,0
12729,2026956,1,106615,106616
11713,2021202,1,105147,0
12982,2016392,1,103441,0
12769,2026331,1,106476,106483
12718,2017800,1,103983,0
13942,2016400,1,103449,103452
15514,2016276,1,103401,103405
13014,2023301,1,105650,0
11551,2026052,1,106398,0
11796,2018961,1,104397,0
14201,2023520,1,105718,105721
15156,2018658,1,104271,0
11874,2026038,1,106384,0
15193,2018336,1,104140,104141
12805,2026038,1,106384,0
15458,2023797,1,105832,0
13911,2020680,1,104875,0
11718,2022604,1,105370,105386
15128,2019001,1,104437,0
14243,2023515,1,105713,105714
11625,2023576,1,105774,105785
15030,2026720,1,106577,0
12950,2023500,1,105698,105702
15509,2023653,1,105814,0
12756,2017759,1,103967,103969
10897,2017800,1,103983,0
12959,2019809,1,104610,0
14064,2023510,1,105708,0
14309,2023576,1,105774,0
14546,2023505,1,105703,105705
12898,2016026,1,103251,0
15604,2019379,1,104538,0
14061,2023505,1,105703,0
14429,2023040,1,105515,0
14259,2023520,1,105718,0
14496,2022080,1,105299,0
14196,2020680,1,104875,0
15514,2016256,1,103381,103387
13953,2023515,1,105713,105717
11591,2020790,1,104910,104912
15141,2019001,1,104437,0
11798,2021196,1,105141,105143
11718,2022624,1,105390,105391
14509,2026482,1,106552,0
14049,2016151,1,103326,0
14183,2018835,1,104372,0
14098,2023571,1,105769,105770
15026,2018398,1,104202,0
14312,2018811,1,104348,0
14550,2020572,1,104840,104844
14212,2018085,1,104080,0
11084,2017600,1,103934,0
12898,2020840,1,104935,104936
14480,2018819,1,104356,0
15143,2018700,1,104313,0
14416,2019944,1,104644,0
14117,2023505,1,105703,105707
15542,2025089,1,106109,0
12653,2017437,1,103884,0
11902,2026371,1,106516,106523
11067,2025720,1,106326,106327
14099,2020652,1,104847,0
11901,2026052,1,106398,106404
14358,2023505,1,105703,105707
14526,2023389,1,105688,0
15602,2018658,1,104271,0
14123,2023653,1,105814,0
14550,2025189,1,106133,106140
11768,2021304,1,105174,105177
12681,2022604,1,105370,0
15148,2020178,1,104722,0
15532,2018336,1,104140,0
15190,2018321,1,104125,104131
13910,2023505,1,105703,0
11796,2026956,1,106615,106616
12030,2016074,1,103274,0
12801,2021300,1,105170,105172
13989,2020680,1,104875,0
14241,2016408,1,103457,0
14372,2023571,1,105769,105771
11616,2022563,1,105366,0
12876,2026482,1,106552,0
15541,2019674,1,104583,104601
14456,2018658,1,104271,0
11957,2018827,1,104364,104365
11618,2021202,1,105147,105148
15056,2018658,1,104271,104272
15438,2020178,1,104722,0
10811,2021035,1,105055,105058
13919,2020652,1,104847,0
15055,2018306,1,104110,104124
12765,2021337,1,105207,0
15541,2019489,1,104551,104553
14512,2019379,1,104538,0
15420,2019647,1,104556,0
12947,2020666,1,104861,0
15359,2018971,1,104407,104413
15129,2018595,1,104208,104219
15188,2020178,1,104722,0
12805,2026381,1,106526,0
11793,2026052,1,106398,0
14212,2016388,1,103437,0
14113,2019379,1,104538,0
15190,2016266,1,103391,0
12714,2018803,1,104340,0
15177,2023040,1,105515,0
12909,2026331,1,106476,0
11713,2022624,1,105390,105405
14468,2018398,1,104202,0
11618,2026052,1,106398,106399
14243,2020666,1,104861,0
11589,2017588,1,103922,0
14449,2023515,1,105713,105716
12028,2021345,1,105215,105217
14290,2018811,1,104348,0
13965,2026720,1,106577,0
13016,2019184,1,104469,104471
12714,2018835,1,104372,104374
12890,2016066,1,103266,0
14408,2023040,1,105515,0
14299,2018616,1,104229,104247
10874,2025597,1,106278,0
15239,2026720,1,106577,106579
14404,2019189,1,104474,104478
11994,2026052,1,106398,0
12681,2026351,1,106496,0
10827,2019647,1,104556,0
11625,2023495,1,105693,105694
14493,2018595,1,104208,104227
14259,2023500,1,105698,105700
14286,2026964,1,106623,106624
12787,2023500,1,105698,105699
12660,2022604,1,105370,105382
11562,2020887,1,104957,104958
15019,2020178,1,104722,0
12722,2021300,1,105170,105173
14098,2023566,1,105764,105765
14307,2023500,1,105698,105700
15097,2023256,1,105605,105620
12729,2018803,1,104340,0
11958,2017594,1,103928,0
11067,2025734,1,106340,106341
13089,2025209,1,106153,0
12801,2025727,1,106333,0
14080,2023495,1,105693,105695
14290,2016408,1,103457,0
12057,2026361,1,106506,106513
14049,2023500,1,105698,105701
15186,2018961,1,104397,0
15399,2024620,1,105916,0
14201,2023500,1,105698,0
14351,2023040,1,105515,0
15444,2016236,1,103361,103367
15575,2026775,1,106583,106586
15097,2023228,1,105577,105587
11589,2026361,1,106506,0
14085,2023301,1,105650,0
13942,2017759,1,103967,103969
15039,2019983,1,104683,0
14453,2023653,1,105814,0
14353,2017990,1,104010,0
14121,2026952,1,106611,106612
11752,2026052,1,106398,0
14366,2019379,1,104538,0
14361,2019379,1,104538,0
10788,2025546,1,106264,0
15190,2016236,1,103361,103365
15402,2023797,1,105832,105834
14181,2017759,1,103967,103969
13913,2019184,1,104469,104473
12925,2020986,1,105006,0
15239,2018109,1,104104,0
12131,2019189,1,104474,104475
15097,2023200,1,105549,0
14351,2023172,1,105521,0
12021,2019674,1,104583,0
15508,2018845,1,104382,0
15097,2016256,1,103381,103390
11629,2021300,1,105170,105172
12681,2017588,1,103922,0
14064,2023561,1,105759,105763
14180,2017754,1,103962,103964
12664,2017600,1,103934,103938
13917,2016388,1,103437,0
12762,2026341,1,106486,106489
15188,2019838,1,104639,0
11883,2023040,1,105515,0
14449,2023495,1,105693,105695
15226,2019944,1,104644,104668
14309,2023515,1,105713,0
9293,2017443,1,103890,0
12057,2026351,1,106496,0
15508,2018961,1,104397,0
12985,2016388,1,103437,103438
14286,2018811,1,104348,0
12726,2023389,1,105688,0
10744,2025592,1,106273,0
14115,2018381,1,104185,0
11901,2026361,1,106506,0
14290,2019379,1,104538,0
11860,2017588,1,103922,0
12667,2016446,1,103470,0
11947,2025720,1,106326,106328
15143,2018595,1,104208,0
11768,2021312,1,105182,105183
15130,2018981,1,104417,0
14353,2018835,1,104372,0
15096,2018658,1,104271,104284
13996,2019184,1,104469,104472
15444,2016246,1,103371,103372
10669,2025546,1,106264,0
12729,2017990,1,104010,0
14184,2019379,1,104538,0
15118,2026775,1,106583,0
15359,2018951,1,104387,0
11589,2026351,1,106496,0
15438,2019838,1,104639,0
12762,2022644,1,105410,0
11575,2026482,1,106552,0
11559,2023040,1,105515,0
15136,2018981,1,104417,0
10625,2026045,1,106391,0
11562,2020896,1,104966,104968
11713,2022604,1,105370,0
14100,2026482,1,106552,0
15190,2016246,1,103371,103375
13002,2020964,1,104984,0
11752,2022624,1,105390,0
15130,2018351,1,104155,104159
15081,2018321,1,104125,104136
15148,2019838,1,104639,0
11570,2020975,1,104995,0
15129,2018700,1,104313,104329
14025,2023571,1,105769,105770
12729,2018827,1,104364,104366
14049,2016144,1,103319,103323
9733,2020878,1,104948,104950
14244,2023566,1,105764,105765
13038,2022624,1,105390,0
13953,2025189,1,106133,106141
12065,2018398,1,104202,0
14157,2020680,1,104875,0
15097,2016276,1,103401,103409
15043,2016226,1,103351,103358
12634,2017606,1,103940,0
9944,2017594,1,103928,0
14309,2019944,1,104644,0
15136,2018951,1,104387,0
12823,2026371,1,106516,106520
15043,2016296,1,103421,103429
15604,2024620,1,105916,0
13149,2023040,1,105515,0
15444,2019647,1,104556,0
11918,2025602,1,106283,0
12660,2022624,1,105390,0
15251,2021435,1,105280,0
15359,2018981,1,104417,0
15070,2023172,1,105521,0
12681,2026361,1,106506,0
14015,2019379,1,104538,0
14286,2026956,1,106615,106616
15087,2018658,1,104271,104285
15497,2024970,1,106015,106016
11551,2026059,1,106405,0
14092,2023525,1,105723,105751
14241,2018803,1,104340,0
12028,2026059,1,106405,0
15059,2018679,1,104292,104298
14358,2023561,1,105759,0
15020,2018971,1,104407,0
14117,2023561,1,105759,0
11603,2023611,1,105809,105810
11850,2018026,1,104046,0
14180,2018819,1,104356,0
15129,2018616,1,104229,0
12898,2020835,1,104930,104931
12889,2023284,1,105633,105643
11946,2021187,1,105132,0
14353,2018017,1,104037,0
12965,2026482,1,106552,0
13932,2023389,1,105688,105690
14282,2019983,1,104683,0
14119,2020652,1,104847,0
13910,2023561,1,105759,105763
11565,2026351,1,106496,106501
11722,2025607,1,106288,0
12765,2021312,1,105182,105185
14501,2025219,1,106163,0
12645,2026482,1,106552,0
15065,2016236,1,103361,103370
14097,2020666,1,104861,0
11084,2017606,1,103940,0
12985,2016392,1,103441,0
14121,2017981,1,104001,0
14183,2018811,1,104348,0
11722,2026038,1,106384,106386
12712,2021027,1,105047,105052
13917,2016392,1,103441,103442
12805,2016074,1,103274,103277
11768,2021333,1,105203,105204
15217,2021435,1,105280,0
14501,2025209,1,106153,0
12852,2026361,1,106506,106508
14200,2025169,1,106113,0
15532,2018381,1,104185,0
11914,2026059,1,106405,0
12718,2020790,1,104910,104912
14211,2026960,1,106619,106622
13020,2020178,1,104722,0
11562,2020881,1,104951,104953
10676,2025546,1,106264,0
15156,2023040,1,105515,0
14509,2016308,1,103433,0
15048,2020178,1,104722,0
12773,2021300,1,105170,105173
14455,2018398,1,104202,0
11688,2026045,1,106391,0
14381,2025089,1,106109,0
14089,2020680,1,104875,0
15065,2016246,1,103371,0
14383,2020666,1,104861,0
14550,2025199,1,106143,106145
13016,2016400,1,103449,0
12827,2026331,1,106476,106480
15136,2019001,1,104437,0
15193,2026720,1,106577,0
14036,2020680,1,104875,0
12769,2022644,1,105410,0
10804,2022624,1,105390,105404
10811,2021027,1,105047,105049
15497,2019809,1,104610,0
15223,2019647,1,104556,0
12948,2018109,1,104104,0
15474,2016654,1,103528,103529
12009,2026351,1,106496,106499
15620,2021435,1,105280,0
13089,2018637,1,104250,0
15520,2023797,1,105832,0
14049,2020652,1,104847,0
11713,2021181,1,105126,105128
15532,2018109,1,104104,0
12923,2022563,1,105366,0
12852,2026351,1,106496,0
12769,2026341,1,106486,106488
15542,2026775,1,106583,0
15575,2023040,1,105515,0
11957,2018811,1,104348,0
11029,2025546,1,106264,0
12764,2016446,1,103470,0
15513,2016144,1,103319,0
11901,2026059,1,106405,0
15359,2019001,1,104437,0
15177,2026775,1,106583,0
12883,2020572,1,104840,0
11555,2026361,1,106506,0
12759,2022644,1,105410,0
14299,2018700,1,104313,104325
15541,2018961,1,104397,0
15026,2018637,1,104250,0
14006,2016158,1,103333,0
11793,2026059,1,106405,0
15065,2019647,1,104556,0
13201,2019809,1,104610,0
14546,2023561,1,105759,0
11575,2023566,1,105764,105766
12705,2026371,1,106516,0
15129,2019944,1,104644,0
11722,2025587,1,106268,0
5184,2023389,1,105688,0
11899,2025546,1,106264,0
12759,2026341,1,106486,106493
13913,2016400,1,103449,0
11793,2025602,1,106283,106285
11565,2026361,1,106506,0
15439,2016654,1,103528,103529
15030,2019983,1,104683,0
14495,2023556,1,105754,105758
14186,2020680,1,104875,0
15193,2018381,1,104185,0
